﻿Name,Type,Label,Description,Parent,Attachments,Architecture,Functions,Interfaces,Interfaces 2,Functions 2
Application,EM System,Application,,,,"HV,LV","Check system integrity,Check high-voltage interlock status,Propagate high-voltage interlock status,Interface with the application",,,
Battery,EM System,Battery,,Application,,"HV,LV",Maintain Cell P-group balanced within the battery,,,
Vehicle control circuit,Electronics,VCU,,Application,,"HV,LV",,,,
Aux. Power supply,EM System,Aux_PSU,,Application,,HV,,,,
Charger control unit,Electronics,CCU,,Application,,HV,"Prevent pack usage in unsafe operating conditions,Control charging of the battery,""Control charger status, current and voltage set-points"",Interface with charger",,,
Onboard charger,EM System,OBC,,Application,,"HV,LV","Prevent pack usage in unsafe operating conditions,Control charging of the battery,""Control charger status, current and voltage set-points"",Interface with charger",,,
Power interface,Electronics,Power_Int,,Application,,"HV,LV","Prevent pack usage in unsafe operating conditions,Control motor controller status and regeneration set-point,Control discharging of the battery",,,
Stack,EM System,Stack,,Battery,,"HV,LV","Maintain Cell P-group balanced within the battery,Detect cell p-group over-voltage,Measure stack of cell p-groups physical parameters,Sink current from individual cell p-groups",,,
Power distribution unit,EM System,PDU,,Battery,,"HV,LV",Check system integrity,,,
Power distribution unit interface,Electronics,PDU Interface,,Battery management system,,"HV,LV","Prevent pack usage in unsafe operating conditions,Precharge Application DC bus,Prevent battery deep discharge,Manage power distribution unit,Determine battery operating conditions,Control ignition of the battery,Manage battery power distribution",,,
Filtering circuit,Electronic sub-circuit,Cfc,,Stack Interface,,"HV,LV",,,,
Transient protection circuit,Electronic sub-circuit,Ctpc,,Stack Interface,,"HV,LV",,,,
Analog front end,Electronic sub-circuit,AFE,,BMU,,"HV,LV",,,,
Balancing circuit,Electronic sub-circuit,Bal_cir,,BMU,,"HV,LV",,,,
SMU digital interface ,Electronic sub-circuit,SMU_int,,BMU,,"HV,LV",,,,
Micro-controller ,Electronic sub-circuit,uC,,System management unit,,"HV,LV",,,,
Data storage,Electronic sub-circuit,Mem,,System management unit,,"HV,LV","Records battery data,Records historical data logs,Records historical error logs,Records historical event logs",,,
BMU interface,Electronic sub-circuit,Int_BMU,,System management unit,,"HV,LV",,,,
External CAN interface,Electronic sub-circuit,Int_CAN,,System management unit,,"HV,LV",,,,
Power Supply Unit,Electronic sub-circuit,PSU,,System management unit,,"HV,LV",,,,
Internal Wired Communication,Electronic sub-circuit,,,System management unit,,"HV,LV",,,,
Contactor driver,Electronic sub-circuit,K_drv,,"High voltage power distribution unit interface,Power distribution unit interface",,"HV,LV",,,,
Aux. Contactor monitor,Electronic sub-circuit,K_sense,,High voltage power distribution unit interface,,"HV,LV",,,,
Shunt Current sensing interface,Electronic sub-circuit,CS_sense,,System management unit,,"HV,LV",,,,
P-group,EM System,A_Pg,,Stack,,"HV,LV",,,"STA+,VCs,STA-",
NTC resistor,EM Component,RT,,Stack,,"HV,LV",Measure voltage of stack thermistor X ,,NTCs,
Main contactor +,EM Component,Km_pos,,Power distribution unit,,"HV,LV",,,,
Main contactor -,EM Component,Km_neg,,Power distribution unit,,"HV,LV",,,,
Precharge contactor,EM Component,Kp,,Power distribution unit,,"HV,LV",,,,
Charge contactor,EM Component,Kc,,Power distribution unit,,"HV,LV",,,,
Precharge resistor,EM Component,Rp,,Power distribution unit,,"HV,LV",,,,
Fuse +,EM Component,Fpos,,Power distribution unit,,"HV,LV",,,,
Fuse -,EM Component,Fneg,,Power distribution unit,,"HV,LV",,,,
Pyro fuse,EM Component,Fpyro,,Power distribution unit,,"HV,LV",,,,
HE current sensor,Sensor,HE_sense,,Power distribution unit,,"HV,LV",Measure battery power line main current,,,
Main + power output channel,Electronic sub-circuit,Km_pos,,Contactor driver,,"HV,LV",,,,
Main - power output channel,Electronic sub-circuit,Km_neg,,Contactor driver,,"HV,LV",,,,
Charge power output channel,Electronic sub-circuit,Kc,,Contactor driver,,"HV,LV",,,,
Precharge power output channel,Electronic sub-circuit,Kp,,Contactor driver,,"HV,LV",,,,
Cell,EM Component,Cell,,P-group,,"HV,LV",,,,
High voltage power distribution unit interface,Electronic sub-circuit,Int_HV_PDU,,System management unit,,"HV,LV",,,,
BMU,Electronics,BMU,,"Battery management system,Stack",,"HV,LV","Manage battery temperature,Determine battery operating conditions,Send configuration to BMUs,Send commands to BMUs,Receive stack information from BMUs,Read secondary overvoltage status","STA_DIN,NTCX+,VCX,VC(X-1),NTCX-,STA+,STA_DOUT,NTCs,VCs,STA-,STA_3V,STA_5V,STA_GPIO 0,STA_GPIO 1,STA_GPIO 2,STA_GPIO 3,STA_I2C SDA,STA_I2C SCL,STA_DIN+,STA_DIN-,STA_DOUT+,STA_DOUT-,STA_2P,STA_2PIN,STA_2POUT,STA_SCPF,STA_SCPF+,STA_SCPF-,V_MES_CMD,VCX_MES,NTCX_MES,NTC_MES_CMD","VCX_MES,NTCX_MES","Measure stack of cell p-groups physical parameters,Measure voltage of cell p-group X,Measure voltage of stack thermistor X ,Activate stack triggerable fuse,Detect cell p-group over-voltage,Sends secondary overvoltage status,Interface with SMU,Report BMU data to the SMU,Receive information and commands from the SMU,Sink current from individual cell p-groups,Open positive power pole of the stack ,Interface with next BMU,Interface with previous BMU"
System management unit,Electronics,SMU,,Battery management system,,"HV,LV","Report BMU data to the SMU,Receive information and commands from the SMU,Check if the battery operating conditions are safe,Estimate the state of the battery,Check stack extrema measured temperatures,Check cell p-groups extrema terminal voltages,Check instantaneous current,Check overload status,Sends secondary overvoltage status,Interface with BMU,Interface with SMU",,,"Interface with BMU,Send configuration to BMUs,Send commands to BMUs,Receive stack information from BMUs,Read secondary overvoltage status,Measure battery power line main current,Monitor battery physical parameters,Determine battery operating conditions,Estimate the state of the battery,Check if the battery operating conditions are safe,Check stack extrema measured temperatures,Check cell p-groups extrema terminal voltages,Check instantaneous current,Check overload status,Check BMS integrity,Check system integrity,Maintain Cell P-group balanced within the battery,Check IMD status,Check high-voltage interlock status,Prevent pack usage in unsafe operating conditions,Protect battery against premature loss of performance,Manage battery power distribution,Records battery data,Manage software upgrades,Manage system interfaces,Interface with the application,Receive information from the ECU,Receive and process commands from the ECU,Precharge Application DC bus,Prevent battery deep discharge,Manage power distribution unit,Interface with charger,Interface with plant,Records historical data logs,Records historical error logs,Records historical event logs,Control ignition of the battery,Control charging of the battery,""Control charger status, current and voltage set-points"",Control motor controller status and regeneration set-point,Control discharging of the battery,Propagate high-voltage interlock status,Manage battery temperature,Sends commands thermal management system,Receives information from thermal management system,Estimates the State of Health of the battery (SOH),Estimates the State of Charge of the battery (SOC),Limit short circuit duration,Manage the precharge of the DC bus,Minimize current consumption"
DC bus voltage sensing circuit,Electronics,DC_sense,,High voltage power distribution unit interface,,"HV,LV",,,,
HE current sensing interface,Electronic sub-circuit,Int_HE_sense,,System management unit,,"HV,LV",,,,
Current Shunt,Sensor,CS_sense,,Power distribution unit,,"HV,LV",Measure battery power line main current,,,
Insulation monitoring device,EM System,IMD,,Battery,,HV,Check IMD status,,,
Battery management system,Electronics,BMS,,Battery,,"HV,LV",Check BMS integrity,,,
Environment,,Env,,,,"HV,LV",,,,
Filtering circuit,Electronic sub-circuit,Fc,,Thermistor Interface,,"HV,LV",,,,
Stack Interface,Electronic sub-circuit,Stack_int,,BMU,,"HV,LV",,,,
Thermistor Interface,Electronic sub-circuit,Temp_int,,BMU,,"HV,LV",,,,
Embedded software,,FW,,Micro-controller ,,"HV,LV",,,,
Thermal management system,EM System,TMS,,Battery,,"HV,LV","Manage battery temperature,Sends commands thermal management system,Receives information from thermal management system",,,
In-situ programmer,EM System,ISP,,,,,,,,
Electronic control unit,Electronics,ECU,,,,,"Receive information from the ECU,Receive and process commands from the ECU,Control charging of the battery,Control motor controller status and regeneration set-point,Control discharging of the battery",,,
NTC resistor,EM Component,RT_bat,,Battery,,,,,,
External charger,EM System,Ext_charger,,,,,"""Control charger status, current and voltage set-points"",Control charging of the battery,Interface with charger",,,
Self control protector fuse,EM System,STA_SCP,,Stack peripherals,,,"Activate stack triggerable fuse,Open positive power pole of the stack ",,"STA_SCPF,STA_SCPF+,STA_SCPF-",
Stack peripherals,EM System,STA_PER,,Stack,,,,,"STA_3V,STA_5V,STA_GPIO 0,STA_GPIO 1,STA_GPIO 2,STA_GPIO 3,STA_I2C SDA,STA_I2C SCL",
Thermal management system,EM System,STA_TMS,,Stack peripherals,,,,,,
Stack digital interface input,EM Component,STA_DIN,,Stack,,,,,"STA_DIN,V_MES_CMD,NTC_MES_CMD",
Stack digital interface output,EM Component,STA_DOUT,,Stack,,,,,STA_DOUT,
P-group positive sensing terminal,EM Component,PG_sense+,,P-group,,,,,VCX,
P-group positive sensing terminal,EM Component,PG_sense-,,P-group,,,,,VC(X-1),
NTC resistor positive sensing terminal,EM Component,NTC_sense+,,NTC resistor,,,,,NTCX+,
NTC resistor negative sensing terminal,EM Component,NTC_sense+,,NTC resistor,,,,,NTCX-,
Stack digital interface  input positive terminal,EM Component,STA_DIN+,,Stack digital interface input,,,,,STA_DIN+,
Stack digital interface input negative terminal,EM Component,STA_DIN-,,Stack digital interface input,,,,,STA_DIN-,
Stack digital interface output positive terminal,EM Component,STA_DIN+,,Stack digital interface output,,,,,STA_DOUT+,
Stack digital interface  output negative terminal,EM Component,STA_DIN-,,Stack digital interface output,,,,,STA_DOUT-,
Stack secondary protection interface ,EM Component,STA_2P,,Stack,,,,,STA_2P,
Stack secondary protection interface input,EM Component,STA_2PIN,,Stack,,,,,STA_2PIN,
Stack secondary protection interface output,EM Component,STA_2POUT,,Stack,,,,,STA_2POUT,