﻿Id,Category,Symbol,Parameter,Design,Variant,Conditions,Min.,Typ.,Max.,Unit,Attachments,Notes,Review Status,Status,Function,Cat. abrev.,Ref Symb,Category order,Table 16,Table 16 (2),Table 16 (3),EOL Test Functions
VS-V_stack,Cell voltage sensing,$V_{stack}$,Total voltage accross channels,FS-LT,FS-LT-10S,,12.00,36.00,50.00,V,,,Reviewed,Validated,Measure voltage of cell p-group X,VS,V_stack,1,,,,
VS-V_stack,Cell voltage sensing,$V_{stack}$,Total voltage accross channels,FS-LT,FS-LT-15S,,18.00,48.00,75.00,V,,,Reviewed,Validated,Measure voltage of cell p-group X,VS,V_stack,1,,,,
VS-V_stack,Cell voltage sensing,$V_{stack}$,Total voltage accross channels,FS-LT,FS-LT-25S,,30.00,72.00,110.00,V,,,Reviewed,Validated,Measure voltage of cell p-group X,VS,V_stack,1,,,,
VS-V_chan,Cell voltage sensing,$V_{chan}$,Channel input voltage,FS-LT,,,2.00,,5.00,V,,,Reviewed,Validated,Measure voltage of cell p-group X,VS,V_chan,1,,,,
VS-ε_Vchan,Cell voltage sensing,$ε_{Vchan}$,Channel error,FS-LT,,at 25 °C,,,±25.00,mV,,,Reviewed,Theoritical,Measure voltage of cell p-group X,VS,ε_Vchan,1,Cell Voltage Sensing Test,Cell Voltage Sensing Test,,Cell Voltage Sensing - BMU
VS-ε_Vchan,Cell voltage sensing,$ε_{Vchan}$,Channel error,FS-LT,,from 0 °C to 60 °C,,,±40.00,mV,,,Reviewed,Theoritical,Measure voltage of cell p-group X,VS,ε_Vchan,1,,,,
VS-ε_Vchan,Cell voltage sensing,$ε_{Vchan}$,Channel error,FS-LT,,,,,±56.00,mV,,,Reviewed,Theoritical,Measure voltage of cell p-group X,VS,ε_Vchan,1,,,,
VS-f_Vfilt,Cell voltage sensing,$f_{Vfilt}$,LPF cut-off frequency,FS-LT,,,,159.00,,Hz,,,Reviewed,Theoritical,Measure voltage of cell p-group X,VS,f_Vfilt,1,,,,
VS-t_Vsamp,Cell voltage sensing,$t_{Vsamp}$,Sampling time,FS-LT,,,,800,,ms,,,Reviewed,Validated,Measure voltage of cell p-group X,VS,t_Vsamp,1,,,,
TS-ts_Tchan,Temperature sensing,$ts_{Tchan}$,Sampling time,FS-LT,,,2.00,2.10,2.20,s,,,Reviewed,Validated,,TS,ts_Tchan,2,,,,
TS-V_Tchan,Temperature sensing,$V_{Tchan}$,Channel input voltage,FS-LT,,,0.30,,3.00,V,,,Reviewed,Validated,,TS,V_Tchan,2,,,,
BAL-I_bal,Balancing,$I_{bal}$,Balancing current,FS-LT,,at cell voltage = 4.20V,,150.00,210.00,mA,,,Reviewed,Validated,,BAL,I_bal,5,,,,Balancing Test- BMU
BAL-α_bal,Balancing,$α_{bal}$,Duty cycle,FS-LT,,Adjacent channel is not balancing,,85.70,,%,,,Reviewed,Theoritical,,BAL,α_bal,5,,,,
BAL-α_bal,Balancing,$α_{bal}$,Duty cycle,FS-LT,,Adjacent channel is balancing,,42.85,,%,,,Reviewed,Theoritical,,BAL,α_bal,5,,,,
CS-V_Isensor,Current sensing,$V_{Isensor}$,Input voltage,FS-LT,,,0.00,,3.30,V,,,Reviewed,Validated,,CS,V_Isensor,3,,,,
CS-t_Isensor,Current sensing,$t_{Isensor}$,Sampling time,"FS-LT,FS-XT-SMU-F",,,,72.00,,μs,,,Reviewed,Validated,,CS,t_Isensor,3,,,,
CS-fc_Isensor,Current sensing,$fc_{Isensor}$,LPF cut-off frequency,FS-LT,,,,6.75,,kHz,,,Reviewed,Theoritical,,CS,fc_Isensor,3,,,,
PSU-V_sup,Main power supply,$V_{sup}$,Input voltage,FS-LT,FS-LT-15S,,18.0,,75.00,V,,,Reviewed,Validated,,PSU,V_sup,6,,,,
PSU-V_sup,Main power supply,$V_{sup}$,Input voltage,FS-LT,FS-LT-25S,,30.0,,125.0,V,,,Reviewed,Validated,,PSU,V_sup,6,,,,
PSU-I_active,Main power supply,$I_{active}$,Current consumption,FS-LT,FS-LT-10S,Active mode,12.00,,69.00,mA,,TBV with T&V,Reviewed,Validated,,PSU,I_active,6,,,,
PSU-I_active,Main power supply,$I_{active}$,Current consumption,FS-LT,FS-LT-15S,Active mode,12.00,,42.00,mA,,TBV with T&V,Reviewed,Validated,,PSU,I_active,6,,,,
PSU-I_active,Main power supply,$I_{active}$,Current consumption,FS-LT,FS-LT-25S,Active mode,9.20,,29.00,mA,,TBV with T&V,Reviewed,Validated,,PSU,I_active,6,,,,
PSU-I_act,Main power supply,$I_{act}$,Current consumption,FS-XT-BMU-OTS,,In active mode.,8.00,14.00,18.00,mA,,,Reviewed,Validated,,PSU,I_act,6,,,,
PSU-I_sleep,Main power supply,$I_{sleep}$,Current consumption,FS-LT,FS-LT-10S,Sleep mode,,,,μA,,TBV with T&V,To be reviewed,Unknown,,PSU,I_sleep,6,,,,
PSU-I_sleep,Main power supply,$I_{sleep}$,Current consumption,FS-LT,FS-LT-15S,Sleep mode,,,,μA,,TBV with T&V,To be reviewed,Unknown,,PSU,I_sleep,6,,,,
PSU-I_sleep,Main power supply,$I_{sleep}$,Current consumption,FS-LT,FS-LT-25S,Sleep mode,,,,μA,,TBV with T&V,To be reviewed,Unknown,,PSU,I_sleep,6,,,,
PSU-I_dpsleep,Main power supply,$I_{dpsleep}$,Current consumption,FS-LT,FS-LT-10S,Deep sleep mode,,,,μA,,,To be reviewed,Unknown,,PSU,I_dpsleep,6,,,,Sleep Mode Test -SMU
PSU-I_dpsleep,Main power supply,$I_{dpsleep}$,Current consumption,FS-LT,FS-LT-15S,Deep sleep mode,,,,μA,,,To be reviewed,Unknown,,PSU,I_dpsleep,6,,,,
PSU-I_dpsleep,Main power supply,$I_{dpsleep}$,Current consumption,FS-LT,FS-LT-25S,Deep sleep mode,,,,μA,,,To be reviewed,Unknown,,PSU,I_dpsleep,6,,,,
COM-bps_BLE,Communication,$bps_{BLE}$,BLE data rate,"FS-LT,FS-XT-SMU-F",,,,50.00,,kbps,,,Reviewed,Theoritical,,COM,bps_BLE,11,,,,
COM-bps_CAN,Communication,$bps_{CAN}$,CAN bus data rate,"FS-XT-SMU-F,FS-LT",,,125.00,,1000.00,kbps,,,Reviewed,Validated,,COM,bps_CAN,11,,,,"CANBus Test Channel 1 ,CANBus Test Channel 2"
COM-V-iso_CAN,Communication,$V-iso_{CAN}$,CAN isolation voltage,FS-LT,,,,1.00,,kV,,,Reviewed,Theoritical,,COM,V-iso_CAN,11,,,,
DAT-GB_SD,Data logging,$GB_{SD}$,Storage size,"FS-LT,FS-XT-SMU-F",,,,8.00,,GB,,,Reviewed,Validated,,DAT,GB_SD,13,,,,
IO-V_GP,GPIOs,$V_{GP}$,GPIO voltage,FS-LT,,,0,,3.30,V,,,Reviewed,Validated,,IO,V_GP,10,,,,
IO-I_GP,GPIOs,$I_{GP}$,GPIO driving capability,FS-LT,,Max. short circuit current. Source Z is 470Ω,,,7.00,mA,,"The specified maximum current value is derived considering a source impedance of 470Ω in the GPIO line
Iout (max) = 3.3V / 470Ω = 7mA",Reviewed,Theoritical,,IO,I_GP,10,,,,
IO-V_OD,GPIOs,$V_{OD}$,Low-side open drain voltage,FS-LT,,,,,60.00,V,,,Reviewed,Theoritical,,IO,V_OD,10,,,,
IO-I_OD,GPIOs,$I_{OD}$,Open drain current sinking capability,FS-LT,,,,,50.00,mA,,,Reviewed,Theoritical,,IO,I_OD,10,,,,
IO-V_AI,GPIOs,$V_{AI}$,Analog input voltage ,FS-LT,,,0,,3.30,V,,,Reviewed,Validated,,IO,V_AI,10,,,,
PSU-V_sup,Main power supply,$V_{sup}$,Input voltage,FS-XT-SMU-F,,,9.00,24.00,60.00,V,,,Reviewed,Validated,,PSU,V_sup,6,,,,
PSU-I_active,Main power supply,$I_{active}$,Current consumption,FS-XT-SMU-F,,Active Mode,,,,mA,,TBV,Reviewed,Unknown,,PSU,I_active,6,,,,
PSU-I_sleep,Main power supply,$I_{sleep}$,Current consumption,FS-XT-SMU-F,,Sleep Mode,,,,μA,,TBV,Reviewed,Unknown,,PSU,I_sleep,6,,,,Sleep Mode Test -SMU
PSU-I_dpsleep,Main power supply,$I_{dpsleep}$,Current consumption,FS-XT-SMU-F,,Deep Sleep Mode,,,,μA,,TBV,Reviewed,Unknown,,PSU,I_dpsleep,6,,,,
SA-ε_Tchan,Safety,$ε_{Tchan}$,Channel error,FS-XT-SMU-F,,,,,,°C,,TBV,To be reviewed,FW to confirm,,SA,ε_Tchan,15,,,,
SA-ts_Tchan,Safety,$ts_{Tchan}$,Sampling time,FS-XT-SMU-F,,,,,,s,,,To be reviewed,FW to confirm,,SA,ts_Tchan,15,,,,
SA-V_Tchan,Safety,$V_{Tchan}$,Channel input voltage,FS-XT-SMU-F,,,0.00,,3.30,V,,,Reviewed,Theoritical,,SA,V_Tchan,15,,,,
CS-Vsup_Isensor,Current sensing,$Vsup_{Isensor}$,Sensor supply voltage,FS-XT-SMU-F,,Under specified loading conditions.,4.85,5.00,5.15,V,,,Reviewed,Theoritical,,CS,Vsup_Isensor,3,,,,
CS-V_Isensor,Current sensing,$V_{Isensor}$,Input voltage,FS-XT-SMU-F,,,0.00,,5.00,V,,,Reviewed,Validated,,CS,V_Isensor,3,,,,
CS-fc_Isensor,Current sensing,$fc_{Isensor}$,LPF cut-off frequency,FS-XT-SMU-F,,,,1.59,,kHz,,,Reviewed,Theoritical,,CS,fc_Isensor,3,,,,
HVS-V_HVchan,High-voltage sensing,$V_{HVchan}$,Channel input voltage,FS-XT-SMU-F,,,0.00,,900.00,V,,,Reviewed,Theoritical,,HVS,V_HVchan,4,,,,
HVS-ε_HVchan,High-voltage sensing,$ε_{HVchan}$,Channel error,FS-XT-SMU-F,,,,,±4.00,V,,,Reviewed,Theoritical,,HVS,ε_HVchan,4,,,,Weld detection-SMU
COM-V-iso_CAN,Communication,$V-iso_{CAN}$,CAN isolation voltage,FS-XT-SMU-F,,,,2.50,,kV,,,Reviewed,Theoritical,,COM,V-iso_CAN,11,,,,
VS-V_chan,Cell voltage sensing,$V_{chan}$,Channel input voltage,FS-XT-BMU-OTS,,,0.00,,5.00,V,,,Reviewed,Theoritical,Measure voltage of cell p-group X,VS,V_chan,1,,,,
VS-ε_Vchan,Cell voltage sensing,$ε_{Vchan}$,Channel error,FS-XT-BMU-OTS,FS-XT-BMU-OTS-12S,,,,±2.80,mV,,,Reviewed,Theoritical,Measure voltage of cell p-group X,VS,ε_Vchan,1,,,,
VS-ε_Vchan,Cell voltage sensing,$ε_{Vchan}$,Channel error,FS-XT-BMU-OTS,FS-XT-BMU-OTS-18S,,,,±4.20,mV,,,Reviewed,Theoritical,Measure voltage of cell p-group X,VS,ε_Vchan,1,,,,
VS-tc_Vchan,Cell voltage sensing,$tc_{Vchan}$,Conversion time,FS-XT-BMU-OTS,FS-XT-BMU-OTS-12S,,,,,ms,,,To be reviewed,FW to confirm,Measure voltage of cell p-group X,VS,tc_Vchan,1,,,,
TS-V_Tchan,Temperature sensing,$V_{Tchan}$,Channel input voltage,FS-XT-BMU-OTS,,,0.00,,3.00,V,,,Reviewed,Validated,,TS,V_Tchan,2,,,,
TS-ε_Tchan,Temperature sensing,$ε_{Tchan}$,Channel error,FS-LT,,-10 °C to 50 °C,,,±1.00,°C,,,Reviewed,Validated,,TS,ε_Tchan,2,,,,NTC Reading Test
TS-ε_Tchan,Temperature sensing,$ε_{Tchan}$,Channel error,FS-XT-BMU-OTS,FS-XT-BMU-OTS-12S,,,,±1.00,°C,,,To be reviewed,Unknown,,TS,ε_Tchan,2,,,,
TS-ε_Tchan,Temperature sensing,$ε_{Tchan}$,Channel error,FS-XT-BMU-OTS,FS-XT-BMU-OTS-18S,,,,±1.00,°C,,,To be reviewed,Unknown,,TS,ε_Tchan,2,,,,
TS-t_Tsamp,Temperature sensing,$t_{Tsamp}$,Sampling time,FS-XT-BMU-OTS,FS-XT-BMU-OTS-12S,,,,,ms,,,To be reviewed,FW to confirm,,TS,t_Tsamp,2,,,,
PSU-I_sleep,Main power supply,$I_{sleep}$,Current consumption,FS-XT-BMU-OTS,,In sleep mode.,2.00,6.00,8.00,μA,,,Reviewed,Validated,,PSU,I_sleep,6,,,,Sleep Mode Test -BMU
PSU-V_sup,Main power supply,$V_{sup}$,Input voltage,FS-XT-BMU-OTS,FS-XT-BMU-OTS-12S,,11.00,,55.00,V,,,Reviewed,Theoritical,,PSU,V_sup,6,,,,
PSU-V_sup,Main power supply,$V_{sup}$,Input voltage,FS-XT-BMU-OTS,FS-XT-BMU-OTS-18S,,16.00,,76.00,V,,,Reviewed,Theoritical,,PSU,V_sup,6,,,,
BAL-I_bal,Balancing,$I_{bal}$,Balancing current,FS-XT-BMU-OTS,,at cell voltage = 4.20V,410.00,420.00,430.00,mA,,,Reviewed,Validated,,BAL,I_bal,5,,,,
BAL-α_bal,Balancing,$α_{bal}$,Duty cycle,FS-XT-BMU-OTS,,,0.00,,100.00,%,,,Reviewed,Theoritical,,BAL,α_bal,5,,,,
COM-bps_isoSPI,Communication,$bps_{isoSPI}$,isoSPI data rate,"FS-XT-SMU-F,FS-XT-BMU-OTS",,,,0.33,1.00,Mbps,,,Reviewed,Theoritical,,COM,bps_isoSPI,11,,,,
COM-V-iso_isoSPI,Communication,$V-iso_{isoSPI}$,isoSPI isolation voltage,"FS-XT-SMU-F,FS-XT-BMU-OTS",,,,1.00,,kV,,,Reviewed,Theoritical,,COM,V-iso_isoSPI,11,,,,
HVS-fc_HVchan,High-voltage sensing,$fc_{HVchan}$,LPF cut-off frequency,FS-XT-SMU-F,,,,1.59,,kHz,,,Reviewed,Theoritical,,HVS,fc_HVchan,4,,,,
HVS-ts_HVchan,High-voltage sensing,$ts_{HVchan}$,Sampling time,FS-XT-SMU-F,,,,,,μs,,TBD,To be reviewed,FW to confirm,,HVS,ts_HVchan,4,,,,
BMU-t_Vbmu,BMU interface,$t_{Vbmu}$,Voltage refresh time,FS-XT-SMU-F,,,,,,ms,,,To be reviewed,FW to confirm,,BMU,t_Vbmu,12,,,,
BMU-t_Tbmu,BMU interface,$t_{Tbmu}$,Temperature refresh time,FS-XT-SMU-F,,,,,,ms,,,To be reviewed,FW to confirm,,BMU,t_Tbmu,12,,,,
CS-Vsup_Isensor,Current sensing,$Vsup_{Isensor}$,Sensor supply voltage,FS-LT,,Recommended to use a current sensor with internal reference.,5.117,5.2,5.381,V,,,Reviewed,Theoritical,,CS,Vsup_Isensor,3,,,,
APS-V_aux,Aux. power supply,$V_{aux}$,Input voltage,FS-XT-SMU-F,,,12.00,,70.00,V,,,Reviewed,Validated,,APS,V_aux,7,,,,
PD-V_PDchan,Power distribution,$V_{PDchan}$,Channel output voltage,FS-XT-SMU-F,,From Aux. supply,12.00,,70.00,V,,,Reviewed,Theoritical,,PD,V_PDchan,9,,,,
PR-V_PR5,Output power rails,$V_{PR5}$,PR5 voltage,FS-LT,,,,5.2,,V,,,Reviewed,Theoritical,,PR,V_PR5,8,,,,
PR-V_PR3-3,Output power rails,$V_{PR3-3}$,PR3-3 voltage,FS-LT,,,,3.3,,V,,,Reviewed,Theoritical,,PR,V_PR3-3,8,,,,
PR-I_PR5,Output power rails,$I_{PR5}$,PR5 current,FS-LT,,,,,150,mA,,,Reviewed,Theoritical,,PR,I_PR5,8,,,,
PR-I_PR3-3,Output power rails,$I_{PR3-3}$,PR3-3 current,FS-LT,,,,,30,mA,,,Reviewed,Theoritical,,PR,I_PR3-3,8,,,,
APS-I_aux,Aux. power supply,$I_{aux}$,Input current,FS-XT-SMU-F,,,,2.00,8.00,A,,,Reviewed,Theoritical,,APS,I_aux,7,,,,
EOC-Alt_ops,Environmental operating conditions,$Alt_{ops}$,Operating altitude,"FS-LT,FS-XT-SMU-F,FS-XT-BMU-OTS,FSB-PR-I,FSB-B",,,,,5000,m,,,Reviewed,Theoritical,,EOC,Alt_ops,19,,,,
EOC-RH_ops,Environmental operating conditions,$RH_{ops}$,Operating humidity,"FS-LT,FS-XT-SMU-F,FS-XT-BMU-OTS,FSB-PR-I,FSB-B",,Non condensing ,20,,80,%,,,Reviewed,Theoritical,,EOC,RH_ops,19,,,,
EOC-Temp_ops,Environmental operating conditions,$Temp_{ops}$,Operating temperature,"FS-LT,FS-XT-SMU-F,FS-XT-BMU-OTS,FSB-PR-I,FSB-B",,,-20,,85,°C,,,Reviewed,Theoritical,,EOC,Temp_ops,19,,,,
CS-I_Isensor,Current sensing,$I_{Isensor}$,Sensor supply current,FS-LT,,,,15,,mA,,,Reviewed,Unknown,,CS,I_Isensor,3,,,,
CS-I_Isensor,Current sensing,$I_{Isensor}$,Sensor supply current,FS-XT-SMU-F,,,1.00,25.00,50.00,mA,,,Reviewed,Theoritical,,CS,I_Isensor,3,,,,
CS-ε_Isensor,Current sensing,$ε_{Isensor}$,Channel error,FS-XT-SMU-F,,,,±2.41,,mV,,| INLb*Vlsb | ,Reviewed,Theoritical,,CS,ε_Isensor,3,,,,Current Sensor Emulation (BMS)
IO-V_OD,GPIOs,$V_{OD}$,Low-side open drain voltage,FS-XT-SMU-F,,,3.30,,60.00,V,,,Reviewed,Theoritical,,IO,V_OD,10,,,,
IO-I_OD,GPIOs,$I_{OD}$,Open drain current sinking capability,FS-XT-SMU-F,,,,,300.00,mA,,,Reviewed,Theoritical,,IO,I_OD,10,,,,
IO-V_ODHS,GPIOs,$V_{ODHS}$,High-side open drain voltage,FS-XT-SMU-F,,,3.30,,25.00,V,,,Reviewed,Theoritical,,IO,V_ODHS,10,,,,
IO-I_ODHS,GPIOs,$I_{ODHS}$,Open drain current sourcing capability,FS-XT-SMU-F,,,,,50.00,mA,,,Reviewed,Theoritical,,IO,I_ODHS,10,,,,
MEC-I_L,Dimensions,$I_L$,Board length,FS-LT,,,109.8,110,110.2,mm,,,Reviewed,Validated,,MEC,I_L,17,,,,
MEC-I_L,Dimensions,$I_L$,Board length,FS-XT-SMU-F,,,154.80,155,155.20,mm,,,Reviewed,Theoritical,,MEC,I_L,17,,,,
MEC-I_L,Dimensions,$I_L$,Board length,FS-XT-BMU-OTS,,,99.8,100,100.2,mm,,,Not Reviewed,Validated,,MEC,I_L,17,,,,
VS-tc_Vchan,Cell voltage sensing,$tc_{Vchan}$,Conversion time,FS-XT-BMU-OTS,FS-XT-BMU-OTS-18S,,,,,ms,,,To be reviewed,FW to confirm,,VS,tc_Vchan,1,,,,
TS-t_Tsamp,Temperature sensing,$t_{Tsamp}$,Sampling time,FS-XT-BMU-OTS,FS-XT-BMU-OTS-18S,,,,,ms,,,To be reviewed,FW to confirm,,TS,t_Tsamp,2,,,,
MEC-I_W,Dimensions,$I_W$,Board width,FS-XT-BMU-OTS,,,79.8,80,80.2,mm,,,Not Reviewed,Validated,,MEC,I_W,17,,,,
MEC-I_H,Dimensions,$I_H$,Board height,FS-XT-BMU-OTS,,,10.43,10.63,10.83,mm,,,Not Reviewed,Validated,,MEC,I_H,17,,,,
MEC-I_W,Dimensions,$I_W$,Board width,FS-LT,,,61.8,62,62.2,mm,,,Reviewed,Validated,,MEC,I_W,17,,,,
MEC-I_H,Dimensions,$I_H$,Board height,FS-LT,,,15.75,15.95,16.15,mm,,,Reviewed,Validated,,MEC,I_H,17,,,,
MEC-I_H,Dimensions,$I_H$,Board width,FS-XT-SMU-F,,,154.80,155,155.20,mm,,,Reviewed,Theoritical,,MEC,I_H,17,,,,
MEC-I_W,Dimensions,$I_W$,Board height,FS-XT-SMU-F,,,17.58,17.78,17.98,mm,,,Reviewed,Theoritical,,MEC,I_W,17,,,,
PD-I_PDchan,Power distribution,$I_{PDchan}$,Channel current capability,FS-XT-SMU-F,,Per channel,,1.00,,A,,,Reviewed,Theoritical,,PD,I_PDchan,9,,,,
HVS-V-iso_HVchan,High-voltage sensing,$V-iso_{HVchan}$,HV sensing isolation voltage,FS-XT-SMU-F,,,,1,,kV,,,,,,HVS,V-iso_HVchan,4,,,,
SA-st_HVIL,Safety,$st_{HVIL}$,High-voltage interlock signal type,FS-XT-SMU-F,,,,PWM,,,,,Reviewed,Theoritical,,SA,st_HVIL,15,,,,
SA-V_HVILsup,Safety,$V_{HVILsup}$,High-voltage interlock signal voltage,FS-XT-SMU-F,,,,5.00,,V,,,Reviewed,Theoritical,,SA,V_HVILsup,15,,,,
SA-V-iso_HVIL,Safety,$V-iso_{HVIL}$,High-voltage interlock signal IO isolation voltage,FS-XT-SMU-F,,,,100,,V,,,Reviewed,Theoritical,,SA,V-iso_HVIL,15,,,,
SA-st_IMD,Safety,$st_{IMD}$,Insulation monitoring device fault type,FS-XT-SMU-F,,,,Logic level & PWM,,,,,Reviewed,Theoritical,,SA,st_IMD,15,,,,IMD Emulation
SA-V_IMDsup,Safety,$V_{IMDsup}$,Insulation monitoring device voltage,FS-XT-SMU-F,,,10,,36,V,,,Reviewed,Theoritical,,SA,V_IMDsup,15,,,,
SA-V-iso_IMD,Safety,$V-iso_{IMD}$,Insulation monitoring device IO isolation voltage,FS-XT-SMU-F,,,,1,,kV,,,,Theoritical,,SA,V-iso_IMD,15,,,,
CS-ε_Isensor,Current sensing,$ε_{Isensor}$,Channel error,FS-LT,,,,±2.41,,mV,,| INLb*Vlsb | ,Reviewed,Theoritical,,CS,ε_Isensor,3,,,,
PD-V_ODHS,Power distribution,$V_{ODHS}$,High-side open drain voltage,FS-LT,,,,3.3,,V,,,Reviewed,Theoritical,,PD,V_ODHS,9,,,,
PD-I_ODHS,Power distribution,$I_{ODHS}$,Open drain current sourcing capability,FS-LT,,Max. short circuit current. Source Z is 470Ω,,7,,mA,,,Reviewed,Theoritical,,PD,I_ODHS,9,,,,
APS-V_aux,Aux. power supply,$V_{aux}$,Input voltage,FSB-PR-I,,,9,,70.00,V,,,Reviewed,Validated,,APS,V_aux,7,,,,
PSU-V_sup,Main power supply,$V_{sup}$,Input voltage,FSB-PR-I,,,,3.3,,V,,,Reviewed,Validated,,PSU,V_sup,6,,,,
PD-V_PDchan,Power distribution,$V_{PDchan}$,Channel output voltage,FSB-PR-I,,From Aux. supply,9,,70.00,V,,,Reviewed,Theoritical,,PD,V_PDchan,9,,,,
SA-I_WDchan,Safety,$I_{WDchan}$,Weld detection loop IO input current,FSB-PR-I,,Per channel,0.27,2,3.5,mA,,,Reviewed,Theoritical,,SA,I_WDchan,15,,,,
APS-I_aux,Aux. power supply,$I_{aux}$,Input current,FSB-PR-I,,,,,8.00,A,,,Reviewed,Theoritical,,APS,I_aux,7,,,,
PSU-I_active,Main power supply,$I_{active}$,Current consumption,FSB-PR-I,,,,15,,mA,,,Reviewed,Theoritical,,PSU,I_active,6,,,,
PD-I_PDchan,Power distribution,$I_{PDchan}$,Channel current capability,FSB-PR-I,,Per channel | 25°C,,1.00,2.00,A,,,Reviewed,Theoritical,,PD,I_PDchan,9,,,,
SA-V_WDchan,Safety,$V_{WDchan}$,Weld detection loop IO voltage,FSB-PR-I,,From Aux. supply,9,,70.00,V,,,Reviewed,Theoritical,,SA,V_WDchan,15,,,,
MEC-I_L,Dimensions,$I_L$,Board length,FSB-PR-I,,,60.80,61,61.20,mm,,,Reviewed,Theoritical,,MEC,I_L,17,,,,
MEC-I_H,Dimensions,$I_H$,Board width,FSB-PR-I,,,45.80,46,46.20,mm,,,Reviewed,Theoritical,,MEC,I_H,17,,,,
MEC-I_W,Dimensions,$I_W$,Board height,FSB-PR-I,,,12.18,12.38,12.58,mm,,,Reviewed,Theoritical,,MEC,I_W,17,,,,
CS-Vsup_Isensor,Current sensing,$Vsup_{Isensor}$,Sensor supply voltage,FSB-PR-I,,,,5.2,,V,,,Reviewed,Validated,,CS,Vsup_Isensor,3,,,,
CS-V_Isensor,Current sensing,$V_{Isensor}$,Input voltage,FSB-PR-I,,,0.00,,5,V,,,Reviewed,Validated,,CS,V_Isensor,3,,,,
CS-fc_Isensor,Current sensing,$fc_{Isensor}$,LPF cut-off frequency,FSB-PR-I,,,,6.75,,kHz,,,Reviewed,Theoritical,,CS,fc_Isensor,3,,,,
CS-I_Isensor,Current sensing,$I_{Isensor}$,Sensor supply current,FSB-PR-I,,,,50,,mA,,,Reviewed,Theoritical,,CS,I_Isensor,3,,,,
CS-Vsup_Isensor,Current sensing,$Vsup_{Isensor}$,Sensor supply voltage,FSB-B,,,,3.3,,V,,,Reviewed,Validated,,CS,Vsup_Isensor,3,,,,
CS-I_Isensor,Current sensing,$I_{Isensor}$,Sensor supply current,FSB-B,,,,15,,mA,,,Reviewed,Theoritical,,CS,I_Isensor,3,,,,
CS-fc_Isensor,Current sensing,$fc_{Isensor}$,LPF cut-off frequency,FSB-B,,,,15.9,,kHz,,,Reviewed,Theoritical,,CS,fc_Isensor,3,,,,
CS-Irange_(Isensor),Current sensing,$Irange_(Isensor)$,Current sensing range,FSB-B,,,-200,,200,A,,,Reviewed,Theoritical,,CS,Irange_(Isensor),3,,,,
PD-I_cont@25,Power distribution,$I_{cont@25}$,Channel current capability,FSB-B,FSB-B-40,Continuous Current | 25°C,,±72,,A,,"10% Derating on FSB-B validation due to 1 sample validation
",Reviewed,Validated,,PD,I_cont@25,9,,,,
PD-I_cont@25,Power distribution,$I_{cont@25}$,Channel current capability,FSB-B,FSB-B-70,Continuous Current | 25°C,,±90,,A,,"10% Derating on FSB-B validation due to 1 sample validation
",Reviewed,Validated,,PD,I_cont@25,9,,,,
SA-Idetect_Isc,Safety,$Idetect_{Isc}$,Short circuit detection current,FSB-B,,,,-420,,A,,,Reviewed,Validated,,SA,Idetect_Isc,15,,,,
SA-Ipeak_Isc,Safety,$Ipeak_{Isc}$,Short circuit peak current,FSB-B,,,,-1200,,A,,,Reviewed,Validated,,SA,Ipeak_Isc,15,,,,
SA-T_SCdetect,Safety,$T_{SCdetect}$,Short circuit response time,FSB-B,,,,75,,μs,,,Reviewed,Validated,,SA,T_SCdetect,15,,,,
PD-V_PDU,Power distribution,$V_{PDU}$,Total voltage accross channels,FSB-B,,,,,63,V,,15S NMC @ 4V2/cell,Reviewed,Theoritical,,PD,V_PDU,9,,,,
TS-V_Tchan,Temperature sensing,$V_{Tchan}$,Channel output voltage,FSB-B,,,0.0,,3.3,V,,,Reviewed,Validated,,TS,V_Tchan,2,,,,
-,,,,,,,,,,,,,,,,,,,,,,
-,,,,,,,,,,,,,,,,,,,,,,
PD-I_cont@55,Power distribution,$I_{cont@55}$,Channel current capability,FSB-B,FSB-B-40,Continuous Current | 55°C,,±54,,A,,"10% Derating on FSB-B validation due to 1 sample validation
",Reviewed,Validated,,PD,I_cont@55,9,,,,
PD-I_cont@55,Power distribution,$I_{cont@55}$,Channel current capability,FSB-B,FSB-B-70,Continuous Current | 55°C,,±72,,A,,"10% Derating on FSB-B validation due to 1 sample validation
",Reviewed,Validated,,PD,I_cont@55,9,,,,
PD-I_peak@25,Power distribution,$I_{peak@25}$,Channel current capability,FSB-B,FSB-B-40,Peak Current | 1 min | 25°C,,±108,,A,,"10% Derating on FSB-B validation due to 1 sample validation
",Reviewed,Validated,,PD,I_peak@25,9,,,,
PD-I_peak@55,Power distribution,$I_{peak@55}$,Channel current capability,FSB-B,FSB-B-40,Peak Current | 1 min | 55°C,,±81,,A,,"10% Derating on FSB-B validation due to 1 sample validation
",Reviewed,Validated,,PD,I_peak@55,9,,,,
PD-I_peak@25,Power distribution,$I_{peak@25}$,Channel current capability,FSB-B,FSB-B-70,Peak Current | 1 min | 25°C,,±126,,A,,"10% Derating on FSB-B validation due to 1 sample validation
",Reviewed,Validated,,PD,I_peak@25,9,,,,
PD-I_peak@55,Power distribution,$I_{peak@55}$,Channel current capability,FSB-B,FSB-B-70,Peak Current | 1 min | 55°C,,±108,,A,,"10% Derating on FSB-B validation due to 1 sample validation
",Reviewed,Validated,,PD,I_peak@55,9,,,,
-,,,,,,,,,,,,,,,,,,,,,,
TS-T_range,Temperature sensing,$T_{range}$,PDU Temperature range,FSB-B,,,-20,,120,°C,,,Reviewed,Theoritical,,TS,T_range,2,,,,
PSU-V_PSU,Main power supply,$V_{PSU}$,Input voltage,FSB-B,,,15,,63,V,,,Reviewed,Validated,,PSU,V_PSU,6,,,,
PSU-I_PSU,Main power supply,$I_{PSU}$,Current consumption,FSB-B,,Active State,,8.3,,mA,,,Reviewed,Validated,,PSU,I_PSU,6,,,,
-,,,,,,,,,,,,,,,,,,,,,,
-,,,,,,,,,,,,,,,,,,,,,,
PD-R_precharge,Power distribution,$R_{precharge}$,Precharge Resistance,FSB-B,,,,13.2,,Ω,,,Reviewed,Validated,,PD,R_precharge,9,,,,
PD-C_precharge,Power distribution,$C_{precharge}$,Precharge Ability,FSB-B,,Battery at 63V,,3.5,,mF,,,Reviewed,Validated,,PD,C_precharge,9,,,,
-,,,,,,,,,,,,,,,,,,,,,,
MEC-I_L,Dimensions,$I_L$,Board length,FSB-B,,,89.80,90,90.20,mm,,,Reviewed,,,MEC,I_L,17,,,,
MEC-I_W,Dimensions,$I_W$,Board width,FSB-B,,,60.80,61,61.20,mm,,,Reviewed,,,MEC,I_W,17,,,,
MEC-I_H,Dimensions,$I_H$,Board height,FSB-B,,,11.95,12.15,12.35,mm,,,Reviewed,,,MEC,I_H,17,,,,
-,,,,,,,,,,,,,,,,,,,,,,
IO-V_ISO_OUT,GPIOs,$V_{ISO_OUT}$,Isolated Output blocking voltage,FS-LT,,"This is a dry contact, excitation for output lines  to be provided externally",,,64,V,,,Reviewed,Theoritical,,IO,V_ISO_OUT,10,,,,
IO-I_ISO_OUT,GPIOs,$I_{ISO_OUT}$,Isolated Output Current handling capability,FS-LT,,"This is a dry contact, excitation for output lines to be provided externally",,,2.4,mA,,The maximum specified continuous current value is with reference to the maximum collector current of ACPL-227 from the Datasheet (graphs),Reviewed,Theoritical,,IO,I_ISO_OUT,10,,,,
IO-V_ISO,GPIOs,$V_{ISO}$,Isolated GPIO isolation voltage,FS-LT,,Basic isolation. Intended only to isolate ground loops,,,110,V,,Basic isolation. Intended only to isolate ground loops.,Reviewed,Theoritical,,IO,V_ISO,10,,,,
IO-V_ISO_IN,GPIOs,$V_{ISO_IN}$,Isolated Input Voltage range,FS-LT,,Values indicated are without any external component/s. Custom integration and different values possible.,2.8,,15,V,,,Reviewed,Theoritical,,IO,V_ISO_IN,10,,,,
IO-I_ISO_IN,GPIOs,$I_{ISO_IN}$,Isolated Input Current sinking capability,FS-LT,,Values indicated are without any external component/s. Custom integration and different values possible.,0.60,,5.0,mA,,,Reviewed,Theoritical,,IO,I_ISO_IN,10,,,,
PSU-V_sup,Main power supply,$V_{sup}$,Input voltage,FS-LT,FS-LT-10S,,12.0,,50.0,V,,,Reviewed,,,PSU,V_sup,6,,,,