﻿Id,Category,Name,Description,Value,Design,Variant,Status,Notes,Attachments,Review Status,Category order
15,Cell voltage sensing,Number of channels,"The board has configurable cell voltage sensing lines from 6 to 10.
This can be done using onboard dip switches.
",10,FS-LT,FS-LT-10S,Validated,,,Reviewed,1
14,Cell voltage sensing,Number of channels,"The board has configurable cell voltage sensing lines from 9 to 15.
This can be done using onboard dip switches.
",15,FS-LT,FS-LT-15S,Validated,,,Reviewed,1
16,Cell voltage sensing,Number of channels,"The board has configurable cell voltage sensing lines from 15 to 25.
This can be done using onboard dip switches.
",25,FS-LT,FS-LT-25S,Validated,,,Reviewed,1
21,Cell voltage sensing,Number of channels,The board has configurable number of cell voltage sensing lines from 6 to 12.,12,FS-XT-BMU-OTS,FS-XT-BMU-OTS-12S,Validated,,,,1
22,Cell voltage sensing,Number of channels,The board has configurable number of cell voltage sensing lines from 8 to 18.,18,FS-XT-BMU-OTS,FS-XT-BMU-OTS-18S,Validated,,,,1
31,GPIOs,Number of low side open drain channels,"Used to drive loads connected to positive supply rail. The supply rail cannot be greater than 60V and the current that can sink through the pins should not be greater than 300mA. For protection, the pin is fused at 300mA for short circuit and reverse polarity protection. The pin is referenced to the BMS GND.",2,FS-XT-SMU-F,,Validated,,,Reviewed,10
27,GPIOs,Number of high side open drain channels,"Used to drive loads connected to BMS GND and the pin can source 10mA of current. It is fused at 300mA for short circuit and reverse polarity protection.
The pin is configurable for either of BMS supply rails (3.3V, 5V or $V_{sup}$) and is not isolated. If the BMS supply rail is used, the value of $V_{sup}$ <b>cannot be higher than 25V</b>.",2 + 2,FS-XT-SMU-F,,Validated,,,Reviewed,10
19,Temperature sensing,Number of channels,Onboard + external thermistor. Divider networks on board. Divider network configured for 10kΩ. Beta value configurable.,1+2,FS-LT,FS-LT-10S,Validated,,,Reviewed,2
18,Temperature sensing,Number of channels,Onboard + external thermistor. Divider networks on board. Divider network configured for 10kΩ. Beta value configurable.,1+3,FS-LT,FS-LT-15S,Validated,,,Reviewed,2
17,Temperature sensing,Number of channels,Onboard + external thermistor. Divider networks on board. Divider network configured for 10kΩ. Beta value configurable.,2+5,FS-LT,FS-LT-25S,Validated,,,Reviewed,2
23,Temperature sensing,Number of channels,Onboard + external thermistor. Filtering and divider networks on board. Divider network configured for 10kΩ. Beta value configurable.,1+3,FS-XT-BMU-OTS,FS-XT-BMU-OTS-12S,Validated,,,,2
24,Temperature sensing,Number of channels,Onboard + external thermistor. Filtering and divider networks on board. Divider network configured for 10kΩ. Beta value configurable.,1+7,FS-XT-BMU-OTS,FS-XT-BMU-OTS-18S,Validated,,,,2
13,Communication,Number of CAN channels,"There are two independent, isolated and configurable CAN channels present onboard for flexibility of system integration.",2,FS-XT-SMU-F,,Validated,,,Reviewed,11
3,Communication,CAN termination,"There exists an internal termination resistor connected to the <i>CANH</i> and <i>R-TERM</i> pins of both the CAN connectors.
When termination is needed, <i>CANL</i> and <i>R-TERM</i> can be shorted to add the termination resistance. This makes the CAN termination network selectable according to the device placement in the system integration environment.",Yes,FS-XT-SMU-F,,Validated,,,Reviewed,11
41,Temperature sensing,Number of channels,Onboard + external thermistor. Filtering and divider networks on board. Divider network configured for 10kΩ. Beta value configurable.,0+4,FS-XT-SMU-F,,Validated,,,Reviewed,2
40,Current sensing,Number of channels,"Two unipolar, bidirectional 0 to 3.3V output <i>Hall-effect</i> current sensors can be interfaced with the device. 
Each channel can be configured with different sensitivity. ",2,FS-LT,FSB-PR-I-CS,Theoritical,,,Reviewed,3
39,Current sensing,Number of channels,"The device supports two unipolar, bidirectional 0 to 5V output <i>Hall-effect</i> current sensors. 
Low Range (High Sensitivity) and High Range (Low Sensitivity) current sensors can be interfaced to the device.
Each channel has a distinct reference input for separately measuring reference generated by the sensor to minimize offset errors during measurement.",2,"FS-XT-SMU-F,FSB-PR-I",FSB-PR-I-CS,Validated,,,Reviewed,3
36,Balancing,Recommended max. battery capacity,"This recommendation is based on balancing current support per cell.
This value is a typical recommendation and the board can support higher Ah ratings depending on battery pack designs.",210Ah,FS-XT-BMU-OTS,,Theoritical,,,,5
30,Communication,Number of isoSPI channels,"There are two isolated, independent and configurable isoSPI channels.
When used under redundancy mode the last BMU connects to the master again.",2,FS-XT-BMU-OTS,,Validated,,,,11
37,Balancing,Recommended max. battery capacity,"This recommendation is based on balancing current support per cell.
This value is a generic recommendation and the board can support higher Ah ratings depending on battery pack designs.",105Ah,FS-LT,,Theoritical,,,Reviewed,5
20,Power distribution,Number of channels,"Isolated, optically coupled, high side drivers.
The channels are inductive kickback protected.
",8 ,FS-XT-SMU-F,,Validated,,,Reviewed,9
42,Power distribution,Number of channels,"Non isolated, high side driver. The channels are transient kickback protected.",4,"FS-LT,FSB-PR-I",FSB-PR-I-CS,Validated,,,Reviewed,9
32,GPIOs,Number of low side open drain channels,"It can be used to drive loads connected to the positive supply rail. The supply rail cannot be greater than 60V and the max. sink capability of the pin is 50mA. For protection, the pin is fused at 50mA for short circuit and reverse polarity protection.
The pin is referenced to the BMS common and is not isolated.",2,FS-LT,,Validated,,,Reviewed,10
26,GPIOs,Number of non-isolated GPIOs,General-purpose input-output channels. 3.3 volts logic signal capped at 7mA sinking and sourcing capability. ,4,FS-LT,,Validated,,,Reviewed,10
25,GPIOs,Number of isolated digital inputs,"Isolated, optically coupled.
These inputs can range from <i>3.3V</i> to <i>12V</i>.
",4,FS-XT-SMU-F,,Validated,,,Reviewed,10
45,GPIOs,Number of isolated digital inputs,"Isolated and optically coupled input.
The input can take a potential range from 3.3V to 12V",1,FS-LT,,Validated,,,Reviewed,10
46,GPIOs,Number of isolated digital outputs,"Isolated and optically coupled output.
The output is a potential free/dry contact can be connected to a maximum potential of 60V and can sink/source 25mA",1,FS-LT,,Validated,,,Reviewed,10
12,Communication,Number of CAN channels,"There are two completely independent onboard CAN channels, one isolated and one non-isolated. ",2,FS-LT,,Validated,,,Reviewed,11
2,Communication,BLE,"This BMS features an onboard BLE 4.1 transceiver. This is used with our companion android app <i>ION Lens</i> to visualize battery data, configure the BMS and a lot more.",1,"FS-LT,FS-XT-SMU-F",,Theoritical,,,Reviewed,11
28,Communication,Number of isoSPI channels,"There are four isolated, independent and configurable isoSPI channels.
When used under redundancy mode, two channels form one ring, thus two bi-directional ring networks can be established.",4,FS-XT-SMU-F,,Validated,,,Reviewed,11
11,Communication,isoSPI redundancy,"The ring topology ensures that if there is a <i>single-point communication failure</i>, communication is not lost but on-the-fly diverted and the system user/admin is notified of the break point.",Yes,"FS-XT-BMU-OTS,FS-XT-SMU-F",,Theoritical,,,Reviewed,11
29,Communication,Number of BMU per isoSPI channel,"Recommended maximum number of devices on isoSPI.
Depending upon integration conditions , the number of BMUs can go higher.",10,FS-XT-SMU-F,,Theoritical,,,Reviewed,11
1,Balancing,Technology,Dissipative balancing,,"FS-XT-BMU-OTS,FS-LT",,Validated,,ION Energy - Safety - BMS integrity.pdf (https://dl.airtable.com/.attachments/39b6df7da99a099936bf2167f8e11da9/b4bbfadb/IONEnergy-Safety-BMSintegrity.pdf),Reviewed,5
5,Data logging,Data logging device,"BMS statistics, parameter and faults logging in soft real-time.
Logging points and time are configurable. This enables having a balance between detailed diagnostics and memory optimization.",Yes,"FS-LT,FS-XT-SMU-F",,Validated,,,Reviewed,13
7,Safety,High-voltage interlock,"This signal flows through critical and service accessible areas of a high voltage system in the form of a closed loop. 
The interlock signal is generated by the BMS and a closed return path confirms the integrity of the loop.
Upon opening of the interlock loop, the BMS opens the power path as it may be a safety hazard.",Yes,FS-XT-SMU-F,,Validated,,,Reviewed,15
8,Safety,Insulation monitoring device,"In any high voltage system, a critical safety feature of heavy leakage current between battery terminals and cabinet/rack connected to EARTH must be monitored.
The board does not feature an onboard IMD (Insulation monitoring device) it depends on an external IMD board for eg. <i>Bender</i> isometer IR155-3204. The IMD continuously monitors the resistance or the leakage current between the battery's positive terminal and the battery cabinet/rack which is system Earth. 
FAULT and ERROR lines from the IMD are monitored.",Yes,FS-XT-SMU-F,,Validated,,,Reviewed,15
6,Safety,High voltage measurement channel,"These measurement channels can monitor voltages with two floating reference points and two measurement points per reference, thus four distinct potentials.
The measurement channels can be used to detect welding of contactors, precharge potential on loads, bus bar drop between battery and contactor.",4,FS-XT-SMU-F,,Theoritical,,,Reviewed,15
38,Standards,RoHS,"The Restriction of Hazardous Substances Directive 2002/95/EC, (RoHS 1), short for Directive on the restriction of the use of certain hazardous substances in electrical and electronic equipment",Yes,"FS-XT-BMU-OTS,FS-LT,FS-XT-SMU-F,FSB-PR-I,FSB-B","FS-XT-BMU-OTS-18S,FS-XT-BMU-OTS-12S,FSB-PR-I-CS,FSB-PR-I",Validated,,,Reviewed,20
57,Standards,ISO-26262,,ASIL- C (WIP),FS-XT-BMU-OTS,,Validated,,,,20
59,Communication,,,,,,,,,,11
60,Standards,ISO 11452-2,"Component test methods for electrical disturbances from narrowband radiated electromagnetic energy, ALSE Method at 30V/meter (200 MHz to 2 GHz)",WIP,"FS-XT-SMU-F,FS-XT-BMU-OTS,FS-LT","FS-XT-BMU-OTS-18S,FS-XT-BMU-OTS-12S",Theoritical,,,Not Reviewed,20
61,Standards,ISO 11452-4,"Component test methods for electrical disturbances from narrowband radiated electromagnetic energy, BCI Method at 60 mA (20 MHz to 400 MHz)",WIP,"FS-XT-BMU-OTS,FS-LT,FS-XT-SMU-F","FS-XT-BMU-OTS-18S,FS-XT-BMU-OTS-12S",Theoritical,,,Not Reviewed,20
62,Standards,ISO 10605,Road vehicles − Test methods for electrical disturbances from electrostatic discharge at 8kV (Contact) and 15kV (Air),WIP,"FS-XT-SMU-F,FS-XT-BMU-OTS,FS-LT","FS-XT-BMU-OTS-18S,FS-XT-BMU-OTS-12S",Theoritical,,,Not Reviewed,20
63,Standards,CISPR 25,"Vehicles, boats and internal combustion engines - Radio disturbance characteristics for Electronic Sub-assemblies (ESAs) or Components",WIP,"FS-XT-BMU-OTS,FS-LT,FS-XT-SMU-F","FS-XT-BMU-OTS-18S,FS-XT-BMU-OTS-12S",Theoritical,,,Not Reviewed,20
64,Safety,Number of weld detect channels,"Two auxiliary-contact based weld detection. The contactor used in the system, should be a mechanically linked dual-pole single-throw type contactor. 
The second contact, a potential free contact is monitored in the FW for contact present only when commanded. Both the weld check channels are logically ORed on HW and a single fault out is sensed by FS-LT. ",2,FSB-PR-I,FSB-PR-I-CS,,,,,15
65,Current sensing,Number of channels,"The device supports one unipolar, bidirectional 0 to 3.3V output thermally enhanced, fully integrated <i>Hall-effect</i> current sensor with linear current sensor with 100uOhm current conductor.
",1,FSB-B,"FSB-B-40,FSB-B-70",Validated,,,Not Reviewed,3
66,Safety,Number of channels,On board pre-charge channel with capability to precharge 3.5mF load  capacitance.,1,FSB-B,"FSB-B-40,FSB-B-70",Validated,,,Not Reviewed,15
67,Power distribution,Number of channels,Solid state relay based power delivery channel with anti-series combination of Power Mosfets with capability to protect against load side short circuit.,1,FSB-B,"FSB-B-40,FSB-B-70",Theoritical,,,Not Reviewed,9
70,Temperature sensing,Number of channels,One temperature sensing channel for power delivery unit temperature measurement and analog communication to monitoring circuitry. ,1,FSB-B,"FSB-B-40,FSB-B-70",Theoritical,,,Not Reviewed,2
71,Safety,Number of error reporting channels,One digital channel for PDU error reporting. For any short circuit error or terminal removal conditions.,1,FSB-B,"FSB-B-40,FSB-B-70",Validated,,,Not Reviewed,15
72,,,,,,,,,,,
73,,,,,,,,,,,