﻿Name,Ref,Id,Category,Block,Parent function,Requires,Description,Characteristics,Attachments,Links,Cat. abrev.,lvl,G-parent,GG-parent,Interfaces,Linked blocks,Tests
Measure stack of cell p-groups physical parameters,VSTS-1,1,"Cell voltage sensing,Temperature sensing",BMU,,,,,,Stack,"VS, TS",,,,"NTCs,VCs","NTC resistor, P-group",
Measure voltage of cell p-group X,VS-2,2,Cell voltage sensing,BMU,Measure stack of cell p-groups physical parameters,,"As a BMU, when my internal AFE sampling initiation flag is set to 1, I measure the VCX channels voltage in X milliseconds, and store the result in the internal memory of the AFE","VS-V_stack,VS-V_stack,VS-V_stack,VS-V_chan,VS-ε_Vchan,VS-ε_Vchan,VS-ε_Vchan,VS-f_Vfilt,VS-t_Vsamp,VS-V_chan,VS-ε_Vchan,VS-ε_Vchan,VS-tc_Vchan",,,VS,,,,"VCs,V_MES_CMD,VCX_MES,STA_DIN,NTC_MES_CMD","P-group, Stack digital interface input, BMU, Stack digital interface input, Stack digital interface input",
Open positive power pole of the stack ,PD-3,3,Power distribution,BMU,,,,,,Self control protector fuse,PD,,,,,,
Activate stack triggerable fuse,SA-4,4,Safety,BMU,Open positive power pole of the stack ,,,,,Self control protector fuse,SA,,,,"STA_SCPF-,STA_SCPF+,STA_SCPF","Self control protector fuse, Self control protector fuse, Self control protector fuse",
Measure voltage of stack thermistor X ,TS-5,5,Temperature sensing,BMU,Measure stack of cell p-groups physical parameters,,,,,NTC resistor,TS,,,,"STA_DIN,NTCs,NTCX_MES,NTC_MES_CMD","Stack digital interface input, NTC resistor, BMU, Stack digital interface input",
Detect cell p-group over-voltage,SA-6,6,Safety,BMU,,,,,,Stack,SA,,,,"VCs,VCX,VC(X-1)","P-group, P-group positive sensing terminal, P-group positive sensing terminal",
Sends secondary overvoltage status,SA-7,7,Safety,BMU,Interface with SMU,,,,,System management unit,SA,,,,"STA_2P,STA_2PIN,STA_2POUT","Stack secondary protection interface , Stack secondary protection interface input, Stack secondary protection interface output",
Interface with SMU,COM-8,8,Communication,BMU,,,,,,System management unit,COM,,,,"STA_DOUT,STA_DIN","Stack digital interface output, Stack digital interface input",
Report BMU data to the SMU,COM-9,9,Communication,BMU,Interface with SMU,,,,,System management unit,COM,,,,"STA_DOUT,STA_DIN","Stack digital interface output, Stack digital interface input",
Receive information and commands from the SMU,COM-10,10,Communication,BMU,Interface with SMU,,,,,System management unit,COM,,,,"STA_DOUT,STA_DIN","Stack digital interface output, Stack digital interface input",
Interface with BMU,COM-11,11,Communication,System management unit,Manage system interfaces,,,,,System management unit,COM,,,,,,
Send configuration to BMUs,COM-12,12,Communication,System management unit,Interface with BMU,,,,,BMU,COM,,Manage system interfaces,,,,
Send commands to BMUs,COM-13,13,Communication,System management unit,Interface with BMU,,,,,BMU,COM,,Manage system interfaces,,,,
Receive stack information from BMUs,COM-14,14,Communication,System management unit,Interface with BMU,,,,,BMU,COM,,Manage system interfaces,,,,
Read secondary overvoltage status,SA-15,15,Safety,System management unit,Interface with BMU,,,,,BMU,SA,,Manage system interfaces,,,,
Measure battery power line main current,CS-16,16,Current sensing,System management unit,Monitor battery physical parameters,,,,,"HE current sensor,Current Shunt",CS,,,,,,
Monitor battery physical parameters,-17,17,,System management unit,,,,,,,,,,,,,
Determine battery operating conditions,OPS-18,18,Operations,System management unit,,Interface with BMU,,,,"BMU,Power distribution unit interface",OPS,,,,,,
Estimate the state of the battery,OPS-19,19,Operations,System management unit,,,,,,System management unit,OPS,,,,,,
Check if the battery operating conditions are safe,SA-20,20,Safety,System management unit,Determine battery operating conditions,,,,,System management unit,SA,,,,,,
Check stack extrema measured temperatures,SA-21,21,Safety,System management unit,Check if the battery operating conditions are safe,,,,,System management unit,SA,,Determine battery operating conditions,,,,
Check cell p-groups extrema terminal voltages,SA-22,22,Safety,System management unit,Check if the battery operating conditions are safe,,,,,System management unit,SA,,Determine battery operating conditions,,,,
Check instantaneous current,SA-23,23,Safety,System management unit,Check if the battery operating conditions are safe,,,,,System management unit,SA,,Determine battery operating conditions,,,,
Check overload status,SA-24,24,Safety,System management unit,Check if the battery operating conditions are safe,,,,,System management unit,SA,,Determine battery operating conditions,,,,
Check BMS integrity,SA-25,25,Safety,System management unit,Check if the battery operating conditions are safe,,,,,Battery management system,SA,,Determine battery operating conditions,,,,
Check system integrity,SA-26,26,Safety,System management unit,Check if the battery operating conditions are safe,,,,,"Application,Power distribution unit",SA,,Determine battery operating conditions,,,,
Maintain Cell P-group balanced within the battery,BAL-27,27,Balancing,System management unit,Protect battery against premature loss of performance,,,,,"Stack,Battery",BAL,,,,,,
Check IMD status,SA-28,28,Safety,System management unit,Check if the battery operating conditions are safe,,,,,Insulation monitoring device,SA,,Determine battery operating conditions,,,,
Check high-voltage interlock status,SA-29,29,Safety,System management unit,Check if the battery operating conditions are safe,,,,,Application,SA,,Determine battery operating conditions,,,,
Prevent pack usage in unsafe operating conditions,SA-30,30,Safety,System management unit,Manage battery power distribution,,Usage means all interactions between the battery pack and the system,,,"Power distribution unit interface,Power interface,Charger control unit,Onboard charger",SA,,,,,,
Protect battery against premature loss of performance,-31,31,,System management unit,,,,,,,,,,,,,
Manage battery power distribution,OPS-32,32,Operations,System management unit,,,,,,Power distribution unit interface,OPS,,,,,,
Records battery data,DAT-33,33,Data logging,System management unit,,,,,,Data storage,DAT,,,,,,
Manage software upgrades,SW-34,34,Software,System management unit,,,,,,,SW,,,,,,
Manage system interfaces,-35,35,,System management unit,,,,,,,,,,,,,
Interface with the application,COM-36,36,Communication,System management unit,Manage system interfaces,,,,,Application,COM,,,,,,
Receive information from the ECU,COM-37,37,Communication,System management unit,Interface with the application,,,,,Electronic control unit,COM,,Manage system interfaces,,,,
Receive and process commands from the ECU,COM-38,38,Communication,System management unit,Interface with the application,,,,,Electronic control unit,COM,,Manage system interfaces,,,,
Precharge Application DC bus,OPS-39,39,Operations,System management unit,Manage power distribution unit,,,,,Power distribution unit interface,OPS,,Manage battery power distribution,,,,
Prevent battery deep discharge,OPS-40,40,Operations,System management unit,Protect battery against premature loss of performance,,,,,Power distribution unit interface,OPS,,,,,,
Manage power distribution unit,PD-41,41,Power distribution,System management unit,Manage battery power distribution,,,,,Power distribution unit interface,PD,,,,,,
Interface with charger,-42,42,,System management unit,Manage system interfaces,,,,,"Charger control unit,Onboard charger,External charger",,,,,,,
Interface with plant,-43,43,,System management unit,Manage system interfaces,,,,,,,,,,,,
Records historical data logs,DAT-44,44,Data logging,System management unit,Records battery data,,,,,Data storage,DAT,,,,,,
Records historical error logs,DAT-45,45,Data logging,System management unit,Records battery data,,,,,Data storage,DAT,,,,,,
Records historical event logs,DAT-46,46,Data logging,System management unit,Records battery data,,,,,Data storage,DAT,,,,,,
Control ignition of the battery,-47,47,,System management unit,Manage battery power distribution,,,,,Power distribution unit interface,,,,,,,
Control charging of the battery,OPS-48,48,Operations,System management unit,Manage battery power distribution,,"Charging can come from : Charger (Onboard or offboard), Regenerative braking from application power interface",,,"Charger control unit,Electronic control unit,Onboard charger,External charger",OPS,,,,,,
"Control charger status, current and voltage set-points",OPSCOM-49,49,"Operations,Communication",System management unit,Control charging of the battery,,,,,"Onboard charger,Charger control unit,External charger","OPS, COM",,Manage battery power distribution,,,,
Control motor controller status and regeneration set-point,OPSCOM-50,50,"Operations,Communication",System management unit,Control charging of the battery,,,,,"Electronic control unit,Power interface","OPS, COM",,Manage battery power distribution,,,,
Control discharging of the battery,OPS-51,51,Operations,System management unit,Manage battery power distribution,,,,,"Electronic control unit,Power interface",OPS,,,,,,
Propagate high-voltage interlock status,SA-52,52,Safety,System management unit,Interface with the application,,,,,Application,SA,,Manage system interfaces,,,,
Manage battery temperature,THM-53,53,Thermal management,System management unit,Manage battery power distribution,,,,,"BMU,Thermal management system",THM,,,,,,
Sends commands thermal management system,THM-54,54,Thermal management,System management unit,Manage battery temperature,,,,,Thermal management system,THM,,Manage battery power distribution,,,,
Receives information from thermal management system,THM-55,55,Thermal management,System management unit,Manage battery temperature,,,,,Thermal management system,THM,,Manage battery power distribution,,,,
Estimates the State of Health of the battery (SOH),-56,56,,System management unit,Estimate the state of the battery,,,,,,,,,,,,
Estimates the State of Charge of the battery (SOC),-57,57,,System management unit,Estimate the state of the battery,,,,,,,,,,,,
Limit short circuit duration,-58,58,,System management unit,Manage power distribution unit,,,,,,,,Manage battery power distribution,,,,
Manage the precharge of the DC bus,-59,59,,System management unit,Manage power distribution unit,,,,,,,,Manage battery power distribution,,,,
Minimize current consumption,-60,60,,System management unit,,,,,,,,,,,,,
Sink current from individual cell p-groups,BAL-61,61,Balancing,BMU,,,,,,Stack,BAL,,,,"VCs,VCX,VC(X-1)","P-group, P-group positive sensing terminal, P-group positive sensing terminal",
Interface with next BMU,COM-62,62,Communication,BMU,,,,,,,COM,,,,"STA_DOUT,STA_DOUT+,STA_DOUT-","Stack digital interface output, Stack digital interface output positive terminal, Stack digital interface  output negative terminal",
Interface with previous BMU,COM-63,63,Communication,BMU,,,,,,,COM,,,,"STA_DIN,STA_DIN+,STA_DIN-","Stack digital interface input, Stack digital interface  input positive terminal, Stack digital interface input negative terminal",
CAN message and cell voltages,-64,64,,,,,,,,,,,,,,,8