﻿Id,#,Type,Label,Description,Connector,Connector designator,Design,Variant,Harness Kit Label,Comments for Harness drawings,Status,Comments,Shielding,Connector group
FS-LT-J4-1,1,Input,NTC 5+,Temperature sensing channel 5. The pin should be connected to the 5th NTC resistor,FS-LT-J4,J4,FS-LT,FS-LT-25S,1 - NTC 5+,,In progress,,,Temperature Sensing
FS-LT-J4-2,2,Input,NTC 5-,Temperature sensing channel 5. The pin should be connected to the 5th NTC resistor,FS-LT-J4,J4,FS-LT,FS-LT-25S,2 - NTC 5-,,In progress,,,Temperature Sensing
FS-LT-J4-3,3,Input,NTC 4+,Temperature sensing channel 4. The pin should be connected to the 4th NTC resistor,FS-LT-J4,J4,FS-LT,FS-LT-25S,3 - NTC 4+,,In progress,,,Temperature Sensing
FS-LT-J4-4,4,Input,NTC 4-,Temperature sensing channel 4. The pin should be connected to the 4th NTC resistor,FS-LT-J4,J4,FS-LT,FS-LT-25S,4 - NTC 4-,,In progress,,,Temperature Sensing
FS-LT-J4-5,5,Input,NTC 3+,Temperature sensing channel 3. The pin should be connected to the 3rd NTC resistor,FS-LT-J4,J4,FS-LT,"FS-LT-15S,FS-LT-25S",5 - NTC 3+,,In progress,,,Temperature Sensing
FS-LT-J4-6,6,Input,NTC 3-,Temperature sensing channel 3. The pin should be connected to the 3rd NTC resistor,FS-LT-J4,J4,FS-LT,"FS-LT-15S,FS-LT-25S",6 - NTC 3-,,In progress,,,Temperature Sensing
FS-LT-J4-7,7,Input,NTC 2+,Temperature sensing channel 2. The pin should be connected to the 2nd NTC resistor,FS-LT-J4,J4,FS-LT,"FS-LT-10S,FS-LT-15S,FS-LT-25S",7 - NTC 2+,,In progress,,,Temperature Sensing
FS-LT-J4-8,8,Input,NTC 2-,Temperature sensing channel 2. The pin should be connected to the 2nd NTC resistor,FS-LT-J4,J4,FS-LT,"FS-LT-10S,FS-LT-15S,FS-LT-25S",8 - NTC 2-,,In progress,,,Temperature Sensing
FS-LT-J4-9,9,Input,NTC 1+,Temperature sensing channel 1. The pin should be connected to the 1st NTC resistor,FS-LT-J4,J4,FS-LT,"FS-LT-10S,FS-LT-15S,FS-LT-25S",9 - NTC 1+,,In progress,,,Temperature Sensing
FS-LT-J4-10,10,Input,NTC 1-,Temperature sensing channel 1. The pin should be connected to the 1st NTC resistor,FS-LT-J4,J4,FS-LT,"FS-LT-10S,FS-LT-15S,FS-LT-25S",10 - NTC 1-,,In progress,,,Temperature Sensing
FS-LT-J6-1,1,Power,3V3,3.3V supply for GPIOs,FS-LT-J6,J6,FS-LT,,1 - 3V3,,In progress,,,GPIO
FS-LT-J6-2,2,GND,GND,GND for GPIOs,FS-LT-J6,J6,FS-LT,,2 - GND,,In progress,,,GPIO
FS-LT-J6-3,3,Output,LSOD 1,"Low side open drain output #1. By default, this input channel is used for the status LED signal (configurable using Edison).",FS-LT-J6,J6,FS-LT,,3 - LSOD 1,,In progress,,,GPIO
FS-LT-J6-4,4,Output,LSOD 0,Low side open drain output #0.,FS-LT-J6,J6,FS-LT,,4 - LSOD 0,,In progress,,,GPIO
FS-LT-J6-5,5,Output,ISO OUT 0,Isolated digital output #0,FS-LT-J6,J6,FS-LT,,5 - ISO OUT 0,,In progress,,,GPIO
FS-LT-J6-6,6,Output,ISO OUT 0 RTN,Return path for the isolated digital output #0.,FS-LT-J6,J6,FS-LT,,6 - ISO OUT 0 RTN,,In progress,,,GPIO
FS-LT-J6-7,7,Input,ISO IN 0,"Isolated digital input #0. By default, this input channel is used for the ignition signal (configurable using Edison).",FS-LT-J6,J6,FS-LT,,7 - ISO IN 0,,In progress,,,GPIO
FS-LT-J6-8,8,Input,ISO IN 0 RTN,"Return path for the isolated digital input #0. This is connected to the BMS ground in the default HW variant. By default, this input channel is used for the ignition signal (configurable using Edison)",FS-LT-J6,J6,FS-LT,,8 - ISO IN 0 RTN,,In progress,,,GPIO
FS-LT-J6-9,9,Input/Output,GPIO 2,Digital GPIO channel #2,FS-LT-J6,J6,FS-LT,,9 - GPIO 2,,In progress,,,GPIO
FS-LT-J6-10,10,Input/Output,GPIO 4,Digital GPIO channel #4,FS-LT-J6,J6,FS-LT,,10 - GPIO 4,,In progress,,,GPIO
FS-LT-J6-11,11,Input/Output,GPIO 1,Digital GPIO channel #1,FS-LT-J6,J6,FS-LT,,11 - GPIO 1,,In progress,,,GPIO
FS-LT-J6-12,12,Input/Output,GPIO 3,Digital GPIO channel #3,FS-LT-J6,J6,FS-LT,,12 - GPIO 3,,In progress,,,GPIO
FS-LT-J6-13,13,GND,GND,Ground. Typically used for the isolated DC-DC converter used to power up the isolated CAN communication channel,FS-LT-J6,J6,FS-LT,,13 - GND,,In progress,,,GPIO
FS-LT-J6-14,14,Input/Output,CAN L,Non-isolated CAN low,FS-LT-J6,J6,FS-LT,,14 - CAN L,,In progress,,,GPIO
FS-LT-J6-15,15,Input/Output,CAN H,Non-isolated CAN high,FS-LT-J6,J6,FS-LT,,15 - CAN H,,In progress,,,GPIO
FS-LT-J6-16,16,Power,5V,5 V supply. Typically used for the PR-I board (to power the external hall effect sensor) and the isolated DC-DC converter used to power up the isolated CAN communication channel.,FS-LT-J6,J6,FS-LT,,16 - 5V,,In progress,,,GPIO
FS-LT-J9-1,1,Input,VC25,Voltage sensing channel 25,FS-LT-J9,J9,FS-LT,FS-LT-25S,1 - VC25,,In progress,,,Voltage Sensing
FS-LT-J9-2,2,Input,VC24,Voltage sensing channel 24,FS-LT-J9,J9,FS-LT,FS-LT-25S,2 - VC24,,In progress,,,Voltage Sensing
FS-LT-J9-3,3,Input,VC23,Voltage sensing channel 23,FS-LT-J9,J9,FS-LT,FS-LT-25S,3 - VC23,,In progress,,,Voltage Sensing
FS-LT-J9-4,4,Input,VC22,Voltage sensing channel 22,FS-LT-J9,J9,FS-LT,FS-LT-25S,4 - VC22,,In progress,,,Voltage Sensing
FS-LT-J9-5,5,Input,VC21,Voltage sensing channel 21,FS-LT-J9,J9,FS-LT,FS-LT-25S,5 - VC21,,In progress,,,Voltage Sensing
FS-LT-J9-6,6,Input,VC20,Voltage sensing channel 20,FS-LT-J9,J9,FS-LT,FS-LT-25S,6 - VC20,,In progress,,,Voltage Sensing
FS-LT-J9-7,7,Input,VC19,Voltage sensing channel 19,FS-LT-J9,J9,FS-LT,FS-LT-25S,7 - VC19,,In progress,,,Voltage Sensing
FS-LT-J9-8,8,Input,VC18,Voltage sensing channel 18,FS-LT-J9,J9,FS-LT,FS-LT-25S,8 - VC18,,In progress,,,Voltage Sensing
FS-LT-J9-9,9,Input,VC17,Voltage sensing channel 17,FS-LT-J9,J9,FS-LT,FS-LT-25S,9 - VC17,,In progress,,,Voltage Sensing
FS-LT-J9-10,10,Input,VC16,Voltage sensing channel 16,FS-LT-J9,J9,FS-LT,FS-LT-25S,10 - VC16,,In progress,,,Voltage Sensing
FS-LT-J9-11,11,Input,VC15,Voltage sensing channel 15,FS-LT-J9,J9,FS-LT,"FS-LT-15S,FS-LT-25S",11 - VC15,,In progress,,,Voltage Sensing
FS-LT-J9-12,12,Input,VC14,Voltage sensing channel 14,FS-LT-J9,J9,FS-LT,"FS-LT-15S,FS-LT-25S",12 - VC14,,In progress,,,Voltage Sensing
FS-LT-J9-13,13,Input,VC13,Voltage sensing channel 13,FS-LT-J9,J9,FS-LT,"FS-LT-15S,FS-LT-25S",13 - VC13,,In progress,,,Voltage Sensing
FS-LT-J9-14,14,Input,VC12,Voltage sensing channel 12,FS-LT-J9,J9,FS-LT,"FS-LT-15S,FS-LT-25S",14 - VC12,,In progress,,,Voltage Sensing
FS-LT-J9-15,15,Input,VC11,Voltage sensing channel 11,FS-LT-J9,J9,FS-LT,"FS-LT-15S,FS-LT-25S",15 - VC11,,In progress,,,Voltage Sensing
FS-LT-J9-16,16,Input,VC10,Voltage sensing channel 10,FS-LT-J9,J9,FS-LT,"FS-LT-10S,FS-LT-15S,FS-LT-25S",16 - VC10,,In progress,,,Voltage Sensing
FS-LT-J9-17,17,Input,VC9,Voltage sensing channel 9,FS-LT-J9,J9,FS-LT,"FS-LT-10S,FS-LT-15S,FS-LT-25S",17 - VC9,,In progress,,,Voltage Sensing
FS-LT-J9-18,18,Input,VC8,Voltage sensing channel 8,FS-LT-J9,J9,FS-LT,"FS-LT-10S,FS-LT-15S,FS-LT-25S",18 - VC8,,In progress,,,Voltage Sensing
FS-LT-J9-19,19,Input,VC7,Voltage sensing channel 7,FS-LT-J9,J9,FS-LT,"FS-LT-10S,FS-LT-15S,FS-LT-25S",19 - VC7,,In progress,,,Voltage Sensing
FS-LT-J9-20,20,Input,VC6,Voltage sensing channel 6,FS-LT-J9,J9,FS-LT,"FS-LT-10S,FS-LT-15S,FS-LT-25S",20 - VC6,,In progress,,,Voltage Sensing
FS-LT-J9-21,21,Input,VC5,Voltage sensing channel 5,FS-LT-J9,J9,FS-LT,"FS-LT-10S,FS-LT-15S,FS-LT-25S",21 - VC5,,In progress,,,Voltage Sensing
FS-LT-J9-22,22,Input,VC4,Voltage sensing channel 4,FS-LT-J9,J9,FS-LT,"FS-LT-10S,FS-LT-15S,FS-LT-25S",22 - VC4,,In progress,,,Voltage Sensing
FS-LT-J9-23,23,Input,VC3,Voltage sensing channel 3,FS-LT-J9,J9,FS-LT,"FS-LT-10S,FS-LT-15S,FS-LT-25S",23 - VC3,,In progress,,,Voltage Sensing
FS-LT-J9-24,24,Input,VC2,Voltage sensing channel 2,FS-LT-J9,J9,FS-LT,"FS-LT-10S,FS-LT-15S,FS-LT-25S",24 - VC2,,In progress,,,Voltage Sensing
FS-LT-J9-25,25,Input,VC1,Voltage sensing channel 1,FS-LT-J9,J9,FS-LT,"FS-LT-10S,FS-LT-15S,FS-LT-25S",25 - VC1,,In progress,,,Voltage Sensing
FS-LT-J9-26,26,Input,Cell 1-,Cell 1- or battery/stack negative,FS-LT-J9,J9,FS-LT,"FS-LT-10S,FS-LT-15S,FS-LT-25S",26 - Cell 1-,,In progress,,,Voltage Sensing
FS-LT-J10-1,1,Output,ERR CLR,High side open drain output for sending the PDU Lock error clear command to the PDU. This pin is only relevant for FSB-B PDU.,FS-LT-J10,J10,FS-LT,,1 - ERR CLR,,In progress,,,PDU Interface
FS-LT-J10-2,2,NA,NC,Unused,FS-LT-J10,J10,FS-LT,,2 - NC,Wire for this pin is not populated,In progress,,,PDU Interface
FS-LT-J10-3,3,Output,PRECHG,High side open drain output for sending the precharge command to the PDU,FS-LT-J10,J10,FS-LT,,3 - PRECHG,,In progress,,,PDU Interface
FS-LT-J10-4,4,Input,PDU ERR,Digital input for PDU Lock error detection signal coming from the PDU.,FS-LT-J10,J10,FS-LT,,4 - PDU ERR,,In progress,,,PDU Interface
FS-LT-J10-5,5,Output,CHG,High side open drain output for sending the charge command to the PDU,FS-LT-J10,J10,FS-LT,,5 - CHG,,In progress,,,PDU Interface
FS-LT-J10-6,6,Input,I SENSE,Analog input channel for receiving the current measurement from the PDU,FS-LT-J10,J10,FS-LT,,6 - I SENSE,"For the PR-I harness, label name is I2 Sense",In progress,,To be shielded,PDU Interface
FS-LT-J10-7,7,Output,DISCHG,High side open drain for  sending the discharge command to the PDU,FS-LT-J10,J10,FS-LT,,7 - DISCHG,,In progress,,,PDU Interface
FS-LT-J10-8,8,Input,T SENSE,Analog input channel for receiving the temperature measurement from the PDU. This pin can also be used as a low range current sensor input with FSB-PR-I-CS,FS-LT-J10,J10,FS-LT,,8 - T SENSE,"For the PR-I harness, label name is I1 Sense",In progress,,To be shielded,PDU Interface
FS-LT-J10-9,9,GND,GND,Ground connection to power up the PDU,FS-LT-J10,J10,FS-LT,,9 - GND,,In progress,,Shield Braid,PDU Interface
FS-LT-J10-10,10,Power,3V3,3V3 connection to power up the PDU,FS-LT-J10,J10,FS-LT,,10 - 3V3,,In progress,,,PDU Interface
FS-LT-J11-1,1,GND,GND,FS-LT needs an external power supply for the isolated CAN communication channel. This is the ground line for that external power supply.,FS-LT-J11,J11,FS-LT,,1 - GND,,In progress,,,Isolated CAN
FS-LT-J11-2,2,Input/Output,isoCAN L,isolated CAN Low,FS-LT-J11,J11,FS-LT,,2 - isoCAN L,,In progress,,,Isolated CAN
FS-LT-J11-3,3,Input/Output,isoCAN H,isolated CAN High,FS-LT-J11,J11,FS-LT,,3 - isoCAN H,,In progress,,,Isolated CAN
FS-LT-J11-4,4,Power,5V,FS-LT needs an external power supply for the isolated CAN communication channel. This is the 5V supply line for that external power supply.,FS-LT-J11,J11,FS-LT,,4 - 5V,,In progress,,,Isolated CAN
FS-LT-J11-5,5,NA,NC,Unused,FS-LT-J11,J11,FS-LT,,5 - NC,,In progress,,,Isolated CAN
FS-LT-J11-6,6,NA,NC,Unused,FS-LT-J11,J11,FS-LT,,6 - NC,,In progress,,,Isolated CAN
FS-LT-J11-7,7,NA,NC,Unused,FS-LT-J11,J11,FS-LT,,7 - NC,,In progress,,,Isolated CAN
FS-LT-J11-8,8,NA,NC,Unused,FS-LT-J11,J11,FS-LT,,8 - NC,,In progress,,,Isolated CAN
FS-XT-BMU-OTS-J2-1,1,NA,NC,Unused,FS-XT-BMU-OTS-J2,J2,FS-XT-BMU-OTS,,1 - NC,,Reviewed,,,Voltage sensing - port B
FS-XT-BMU-OTS-J2-2,2,Input,VC18,Voltage sensing channel 18,FS-XT-BMU-OTS-J2,J2,FS-XT-BMU-OTS,,2 - VC18,,Reviewed,,,Voltage sensing - port B
FS-XT-BMU-OTS-J2-3,3,Input,VC17,Voltage sensing channel 17,FS-XT-BMU-OTS-J2,J2,FS-XT-BMU-OTS,,3 - VC17,,Reviewed,,,Voltage sensing - port B
FS-XT-BMU-OTS-J2-4,4,Input,VC16,Voltage sensing channel 16,FS-XT-BMU-OTS-J2,J2,FS-XT-BMU-OTS,,4 - VC16,,Reviewed,,,Voltage sensing - port B
FS-XT-BMU-OTS-J2-5,5,Input,VC15,Voltage sensing channel 15,FS-XT-BMU-OTS-J2,J2,FS-XT-BMU-OTS,,5 - VC15,,Reviewed,,,Voltage sensing - port B
FS-XT-BMU-OTS-J2-6,6,Input,VC14,Voltage sensing channel 14,FS-XT-BMU-OTS-J2,J2,FS-XT-BMU-OTS,,6 - VC14,,Reviewed,,,Voltage sensing - port B
FS-XT-BMU-OTS-J3-1,1,Input/Output,isoSPI-,Negative pin for outgoing isoSPI communication.,FS-XT-BMU-OTS-J3,J3,FS-XT-BMU-OTS,,1 - isoSPI-,,Reviewed,"Looks like both channel A & B are ""incoming"". Issue ?",,isoSPI Out/channel A
FS-XT-BMU-OTS-J3-2,2,Input/Output,isoSPI+,Positive pin for outgoing isoSPI communication.,FS-XT-BMU-OTS-J3,J3,FS-XT-BMU-OTS,,2 - isoSPI+,,Reviewed,,,isoSPI Out/channel A
FS-XT-BMU-OTS-J4-1,1,Input,VC13,Voltage sensing channel 13,FS-XT-BMU-OTS-J4,J4,FS-XT-BMU-OTS,,1 - VC13,,Reviewed,,,Voltage sensing - port A
FS-XT-BMU-OTS-J4-2,2,Input,VC12,Voltage sensing channel 12,FS-XT-BMU-OTS-J4,J4,FS-XT-BMU-OTS,,2 - VC12,,Reviewed,,,Voltage sensing - port A
FS-XT-BMU-OTS-J4-3,3,Input,VC11,Voltage sensing channel 11,FS-XT-BMU-OTS-J4,J4,FS-XT-BMU-OTS,,3 - VC11,,Reviewed,,,Voltage sensing - port A
FS-XT-BMU-OTS-J4-4,4,Input,VC10,Voltage sensing channel 10,FS-XT-BMU-OTS-J4,J4,FS-XT-BMU-OTS,,4 - VC10,,Reviewed,,,Voltage sensing - port A
FS-XT-BMU-OTS-J4-5,5,Input,VC9,Voltage sensing channel 9,FS-XT-BMU-OTS-J4,J4,FS-XT-BMU-OTS,,5 - VC9,,Reviewed,,,Voltage sensing - port A
FS-XT-BMU-OTS-J4-6,6,Input,VC8,Voltage sensing channel 8,FS-XT-BMU-OTS-J4,J4,FS-XT-BMU-OTS,,6 - VC8,,Reviewed,,,Voltage sensing - port A
FS-XT-BMU-OTS-J4-7,7,Input,VC7,Voltage sensing channel 7,FS-XT-BMU-OTS-J4,J4,FS-XT-BMU-OTS,,7 - VC7,,Reviewed,,,Voltage sensing - port A
FS-XT-BMU-OTS-J4-8,8,Input,VC6,Voltage sensing channel 6,FS-XT-BMU-OTS-J4,J4,FS-XT-BMU-OTS,,8 - VC6,,Reviewed,,,Voltage sensing - port A
FS-XT-BMU-OTS-J4-9,9,Input,VC5,Voltage sensing channel 5,FS-XT-BMU-OTS-J4,J4,FS-XT-BMU-OTS,,9 - VC5,,Reviewed,,,Voltage sensing - port A
FS-XT-BMU-OTS-J4-10,10,Input,VC4,Voltage sensing channel 4,FS-XT-BMU-OTS-J4,J4,FS-XT-BMU-OTS,,10 - VC4,,Reviewed,,,Voltage sensing - port A
FS-XT-BMU-OTS-J4-11,11,Input,VC3,Voltage sensing channel 3,FS-XT-BMU-OTS-J4,J4,FS-XT-BMU-OTS,,11 - VC3,,Reviewed,,,Voltage sensing - port A
FS-XT-BMU-OTS-J4-12,12,Input,VC2,Voltage sensing channel 2,FS-XT-BMU-OTS-J4,J4,FS-XT-BMU-OTS,,12 - VC2,,Reviewed,,,Voltage sensing - port A
FS-XT-BMU-OTS-J4-13,13,Input,VC1,Voltage sensing channel 1,FS-XT-BMU-OTS-J4,J4,FS-XT-BMU-OTS,,13 - VC1,,Reviewed,,,Voltage sensing - port A
FS-XT-BMU-OTS-J4-14,14,Input,CELL 1-,Cell 1- or battery/stack negative. ,FS-XT-BMU-OTS-J4,J4,FS-XT-BMU-OTS,,14 - CELL 1-,,Reviewed,,,Voltage sensing - port A
FS-XT-BMU-OTS-J5-1,1,Input/Output,isoSPI-,Negative pin for incoming isoSPI communication.,FS-XT-BMU-OTS-J5,J5,FS-XT-BMU-OTS,,1 - isoSPI-,,Reviewed,,,isoSPI In/channel B
FS-XT-BMU-OTS-J5-2,2,Input/Output,isoSPI+,Positive pin for incoming isoSPI communication.,FS-XT-BMU-OTS-J5,J5,FS-XT-BMU-OTS,,2 - isoSPI+,,Reviewed,,,isoSPI In/channel B
FS-XT-BMU-OTS-J6-1,1,Power,STACK+,Battery/stack positive. The pin can be used to power up auxiliary systems. The max. current limit is 2 A.,FS-XT-BMU-OTS-J6,J6,FS-XT-BMU-OTS,,1 - STACK+,,Reviewed,,,Auxiliary GPIOs
FS-XT-BMU-OTS-J6-2,2,Power,3V,"3 V output (with reference to stack negative) can be used to power auxiliary systems. The max current is 
1 mA.",FS-XT-BMU-OTS-J6,J6,FS-XT-BMU-OTS,,2 - 3V,,Reviewed,,,Auxiliary GPIOs
FS-XT-BMU-OTS-J6-3,3,Input/Output,GPIO 0,Analog input pin primarily used for temperature sensing by connecting a NTC resistor between the GPIO and stack-. Can also be used as digital I/O.,FS-XT-BMU-OTS-J6,J6,FS-XT-BMU-OTS,,3 - GPIO 0,,Reviewed,,,Auxiliary GPIOs
FS-XT-BMU-OTS-J6-4,4,Input/Output,GPIO 1,Analog input pin primarily used for temperature sensing by connecting a NTC resistor between the GPIO and stack-. Can also be used as digital I/O.,FS-XT-BMU-OTS-J6,J6,FS-XT-BMU-OTS,,4 - GPIO 1,,Reviewed,,,Auxiliary GPIOs
FS-XT-BMU-OTS-J6-5,5,Input/Output,GPIO 2,Analog input pin primarily used for temperature sensing by connecting a NTC resistor between the GPIO and stack-. Can also be used as digital I/O.,FS-XT-BMU-OTS-J6,J6,FS-XT-BMU-OTS,,5 - GPIO 2,,Reviewed,,,Auxiliary GPIOs
FS-XT-BMU-OTS-J6-6,6,Power,5V,"5V output (with reference to stack negative) can be used to power auxiliary systems. The max current limit is 
1 mA.",FS-XT-BMU-OTS-J6,J6,FS-XT-BMU-OTS,,6 - 5V,,Reviewed,,,Auxiliary GPIOs
FS-XT-BMU-OTS-J6-7,7,Input/Output,GPIO 3,Analog input pin primarily used for temperature sensing by connecting a NTC resistor between the GPIO and stack-. Can also be used as digital I/O.,FS-XT-BMU-OTS-J6,J6,FS-XT-BMU-OTS,,7 - GPIO 3,,Reviewed,,,Auxiliary GPIOs
FS-XT-BMU-OTS-J6-8,8,Input/Output,I2C SDA,SDA - I2C data line. This pin can be used for interfacing with external systems.,FS-XT-BMU-OTS-J6,J6,FS-XT-BMU-OTS,,8 - I2C SDA,,Reviewed,,,Auxiliary GPIOs
FS-XT-BMU-OTS-J6-9,9,Input/Output,I2C SCL,SCL - I2C clock line. This pin can be used for interfacing with external systems.,FS-XT-BMU-OTS-J6,J6,FS-XT-BMU-OTS,,9 - I2C SCL,,Reviewed,,,Auxiliary GPIOs
FS-XT-BMU-OTS-J6-10,10,GND,STACK-,Battery/stack negative. This pin is the reference for all the pins in this connector.,FS-XT-BMU-OTS-J6,J6,FS-XT-BMU-OTS,,10 - STACK-,,Reviewed,,,Auxiliary GPIOs
FS-XT-BMU-OTS-J7-1,1,Input,NTC3+,Temperature sensing channel 3. The pin should be connected to the 3rd NTC resistor,FS-XT-BMU-OTS-J7,J7,FS-XT-BMU-OTS,,1 - NTC3+,,Reviewed,,,Temperature sensing
FS-XT-BMU-OTS-J7-2,2,Input,"NTC3-
",Temperature sensing channel 3. The pin should be connected to the 3rd NTC resistor,FS-XT-BMU-OTS-J7,J7,FS-XT-BMU-OTS,,"2 - NTC3-
",,Reviewed,,,Temperature sensing
FS-XT-BMU-OTS-J7-3,3,Input,NTC2+,Temperature sensing channel 2. The pin should be connected to the 2nd NTC resistor,FS-XT-BMU-OTS-J7,J7,FS-XT-BMU-OTS,,3 - NTC2+,,Reviewed,,,Temperature sensing
FS-XT-BMU-OTS-J7-4,4,Input,NTC2-,Temperature sensing channel 2. The pin should be connected to the 2nd NTC resistor,FS-XT-BMU-OTS-J7,J7,FS-XT-BMU-OTS,,4 - NTC2-,,Reviewed,,,Temperature sensing
FS-XT-BMU-OTS-J7-5,5,Input,NTC1+,Temperature sensing channel 1. The pin should be connected to the 1st NTC resistor,FS-XT-BMU-OTS-J7,J7,FS-XT-BMU-OTS,,5 - NTC1+,,Reviewed,,,Temperature sensing
FS-XT-BMU-OTS-J7-6,6,Input,NTC1-,Temperature sensing channel 1. The pin should be connected to the 1st NTC resistor,FS-XT-BMU-OTS-J7,J7,FS-XT-BMU-OTS,,6 - NTC1-,,Reviewed,,,Temperature sensing
FS-XT-SMU-F-J1-1,1,Input,HV-A1,High Voltage measurement channel 1 on port A. This is measured in reference to the HV-A CMN signal on connector J2.,FS-XT-SMU-F-J1,J1,FS-XT-SMU-F,,1 - HV-A1,,Reviewed,,,HV Sensing Port A Channel 1
FS-XT-SMU-F-J1-2,2,NA,NC,Unused,FS-XT-SMU-F-J1,J1,FS-XT-SMU-F,,2 - NC,Not populated in drawing,Reviewed,,,HV Sensing Port A Channel 1
FS-XT-SMU-F-J2-1,1,Input,HV-A CMN,Reference signal for the high voltage measurement port A.,FS-XT-SMU-F-J2,J2,FS-XT-SMU-F,,1 - HV-A CMN,,Reviewed,,,HV Sensing Port A Common
FS-XT-SMU-F-J2-2,2,NA,NC,Unused,FS-XT-SMU-F-J2,J2,FS-XT-SMU-F,,2 - NC,Not populated in drawing,Reviewed,,,HV Sensing Port A Common
FS-XT-SMU-F-J3-1,1,Input,HV-A2,High Voltage measurement channel 2 on port A. This is measured in reference to the HV-A CMN signal on connector J2.,FS-XT-SMU-F-J3,J3,FS-XT-SMU-F,,1 - HV-A2,,Reviewed,,,HV Sensing Port A Channel 2
FS-XT-SMU-F-J3-2,2,NA,NC,Unused,FS-XT-SMU-F-J3,J3,FS-XT-SMU-F,,2 - NC,Not populated in drawing,Reviewed,,,HV Sensing Port A Channel 2
FS-XT-SMU-F-J4-1,1,Input,HV-B1,High Voltage measurement channel 1 on port B. This is measured in reference to the HV-B CMN signal on connector J5.,FS-XT-SMU-F-J4,J4,FS-XT-SMU-F,,1 - HV-B1,,Reviewed,,,HV Sensing Port B Channel 1
FS-XT-SMU-F-J4-2,2,NA,NC,Unused,FS-XT-SMU-F-J4,J4,FS-XT-SMU-F,,2 - NC,Not populated in drawing,Reviewed,,,HV Sensing Port B Channel 1
FS-XT-SMU-F-J5-1,1,Input,HV-B CMN,Reference signal for the high voltage measurement port B. ,FS-XT-SMU-F-J5,J5,FS-XT-SMU-F,,1 - HV-B CMN,,Reviewed,,,HV Sensing Port B Common
FS-XT-SMU-F-J5-2,2,NA,NC,Unused,FS-XT-SMU-F-J5,J5,FS-XT-SMU-F,,2 - NC,Not populated in drawing,Reviewed,,,HV Sensing Port B Common
FS-XT-SMU-F-J6-1,1,Input,HV-B2,High Voltage measurement channel 2 on port B. This is measured in reference to the HV-B CMN signal on connector J5.,FS-XT-SMU-F-J6,J6,FS-XT-SMU-F,,1 - HV-B2,,Reviewed,,,HV Sensing Port B Channel 2
FS-XT-SMU-F-J6-2,2,NA,NC,Unused,FS-XT-SMU-F-J6,J6,FS-XT-SMU-F,,2 - NC,Not populated in drawing,Reviewed,,,HV Sensing Port B Channel 2
FS-XT-SMU-F-J7-1,1,Input/Output,isoSPI -,Channel 1 isoSPI Line -ve,FS-XT-SMU-F-J7,J7,FS-XT-SMU-F,,1 - isoSPI -,,Reviewed,,,isoSPI Channel 1
FS-XT-SMU-F-J7-2,2,Input/Output,isoSPI+,Channel 1 isoSPI Line +ve,FS-XT-SMU-F-J7,J7,FS-XT-SMU-F,,2 - isoSPI+,,Reviewed,,,isoSPI Channel 1
FS-XT-SMU-F-J8-1,1,Input/Output,isoSPI-,Channel 2 isoSPI Line -ve,FS-XT-SMU-F-J8,J8,FS-XT-SMU-F,,1 - isoSPI-,,Reviewed,,,isoSPI Channel 2
FS-XT-SMU-F-J8-2,2,Input/Output,isoSPI+,Channel 2 isoSPI Line +ve,FS-XT-SMU-F-J8,J8,FS-XT-SMU-F,,2 - isoSPI+,,Reviewed,,,isoSPI Channel 2
FS-XT-SMU-F-J9-1,1,Input/Output,isoSPI-,Channel 3 isoSPI Line -ve,FS-XT-SMU-F-J9,J9,FS-XT-SMU-F,,1 - isoSPI-,,Reviewed,,,isoSPI Channel 3
FS-XT-SMU-F-J9-2,2,Input/Output,isoSPI+,Channel 3 isoSPI Line +ve,FS-XT-SMU-F-J9,J9,FS-XT-SMU-F,,2 - isoSPI+,,Reviewed,,,isoSPI Channel 3
FS-XT-SMU-F-J10-1,1,Input/Output,isoSPI-,Channel 4 isoSPI Line -ve,FS-XT-SMU-F-J10,J10,FS-XT-SMU-F,,1 - isoSPI-,,Reviewed,,,isoSPI Channel 4
FS-XT-SMU-F-J10-2,2,Input/Output,isoSPI+,Channel 4 isoSPI Line +ve,FS-XT-SMU-F-J10,J10,FS-XT-SMU-F,,2 - isoSPI+,,Reviewed,,,isoSPI Channel 4
FS-XT-SMU-F-J12-1,1,NA,CAN1 GND,CAN 1 Ground,FS-XT-SMU-F-J12,J12,FS-XT-SMU-F,,1 - CAN1 GND,,Reviewed,,,Isolated CAN Channel 1
FS-XT-SMU-F-J12-2,2,NA,CAN1 TERM,CAN 1 R Termination Resistor,FS-XT-SMU-F-J12,J12,FS-XT-SMU-F,,2 - CAN1 TERM,,Reviewed,,,Isolated CAN Channel 1
FS-XT-SMU-F-J15-1,1,NA,NC,Unused.,FS-XT-SMU-F-J15,J15,FS-XT-SMU-F,,1 - NC,Not populated in harness drawing.,Reviewed,,,High Voltage Interlock (HVIL) Output
FS-XT-SMU-F-J15-2,2,Output,HVIL OUT,HVIL Output,FS-XT-SMU-F-J15,J15,FS-XT-SMU-F,,2 - HVIL OUT,,Reviewed,,,High Voltage Interlock (HVIL) Output
FS-XT-SMU-F-J15-3,3,NA,NC,Unused,FS-XT-SMU-F-J15,J15,FS-XT-SMU-F,,3 - NC,Not populated in harness drawing.,Reviewed,,,High Voltage Interlock (HVIL) Output
FS-XT-SMU-F-J16-1,1,Input,ISO IN 3 RTN,Return path for digital input #3. This is connected to the BMS ground in the default HW variant.,FS-XT-SMU-F-J16,J16,FS-XT-SMU-F,,1 - ISO IN 3 RTN,,Reviewed,,,GPIO
FS-XT-SMU-F-J16-2,2,Input,ISO IN 2 RTN,Return path for digital input #2. This is connected to the BMS ground in the default HW variant.,FS-XT-SMU-F-J16,J16,FS-XT-SMU-F,,2 - ISO IN 2 RTN,,Reviewed,,,GPIO
FS-XT-SMU-F-J16-3,3,Input,ISO IN 0 RTN,"Return path for digital input #0. This is connected to the BMS ground in the default HW variant. By default, this input channel is used for the ignition signal (configurable using Edison).",FS-XT-SMU-F-J16,J16,FS-XT-SMU-F,,3 - ISO IN 0 RTN,,Reviewed,,,GPIO
FS-XT-SMU-F-J16-4,4,Input,ISO IN 1 RTN,Return path for digital input #1. This is connected to the BMS ground in the default HW variant.,FS-XT-SMU-F-J16,J16,FS-XT-SMU-F,,4 - ISO IN 1 RTN,,Reviewed,,,GPIO
FS-XT-SMU-F-J16-5,5,Output,GND,Ground signal for the GPIO connector.,FS-XT-SMU-F-J16,J16,FS-XT-SMU-F,,5 - GND,,Reviewed,,,GPIO
FS-XT-SMU-F-J16-6,6,Input,ISO IN 3,Digital input #3.,FS-XT-SMU-F-J16,J16,FS-XT-SMU-F,,6 - ISO IN 3,,Reviewed,,,GPIO
FS-XT-SMU-F-J16-7,7,Input,ISO IN 2,Digital Input #2.,FS-XT-SMU-F-J16,J16,FS-XT-SMU-F,,7 - ISO IN 2,,Reviewed,,,GPIO
FS-XT-SMU-F-J16-8,8,Input,ISO IN 0,"Digital Input #0. By default, this input channel is used for the ignition signal (configurable using Edison).",FS-XT-SMU-F-J16,J16,FS-XT-SMU-F,,8 - ISO IN 0,,Reviewed,,,GPIO
FS-XT-SMU-F-J16-9,9,Input,ISO IN 1,Digital Input #1.,FS-XT-SMU-F-J16,J16,FS-XT-SMU-F,,9 - ISO IN 1,,Reviewed,,,GPIO
FS-XT-SMU-F-J16-10,10,Output,HSOD 0,High side open drain output #0.,FS-XT-SMU-F-J16,J16,FS-XT-SMU-F,,10 - HSOD 0,,Reviewed,,,GPIO
FS-XT-SMU-F-J16-11,11,Output,HSOD 1,High side open drain output #1.,FS-XT-SMU-F-J16,J16,FS-XT-SMU-F,,11 - HSOD 1,,Reviewed,,,GPIO
FS-XT-SMU-F-J16-12,12,NA,NC,Unused,FS-XT-SMU-F-J16,J16,FS-XT-SMU-F,,12 - NC,,Reviewed,,,GPIO
FS-XT-SMU-F-J16-13,13,Output,GND,Ground,FS-XT-SMU-F-J16,J16,FS-XT-SMU-F,,13 - GND,,Reviewed,,,GPIO
FS-XT-SMU-F-J16-14,14,Output,LSOD 0,Low side open drain output #0.,FS-XT-SMU-F-J16,J16,FS-XT-SMU-F,,14 - LSOD 0,,Reviewed,,,GPIO
FS-XT-SMU-F-J16-15,15,Output,LSOD 1,"Low side open drain output #1. By default, this input channel is used for the status LED signal (configurable using Edison).",FS-XT-SMU-F-J16,J16,FS-XT-SMU-F,,15 - LSOD 1,,Reviewed,,,GPIO
FS-XT-SMU-F-J17-1,1,Output,SUPPLY,Power Supply (KL 15) for the IMD device. This connects to pin 1 of the Bender Isometer IR155-3204.,FS-XT-SMU-F-J17,J17,FS-XT-SMU-F,,1 - SUPPLY,,Reviewed,,,Insulation Monitoring Device (IMD) Interface
FS-XT-SMU-F-J17-2,2,Input,ERROR,PWM Input to detect the error state of the IMD.This connects to pin 5 of the Bender Isometer IR155-3204.,FS-XT-SMU-F-J17,J17,FS-XT-SMU-F,,2 - ERROR,,Reviewed,,,Insulation Monitoring Device (IMD) Interface
FS-XT-SMU-F-J17-3,3,Input,FAULT,Digital Input to detect if an IMD fault exists. This connects to pin 8 of the Bender Isometer IR155-3204.,FS-XT-SMU-F-J17,J17,FS-XT-SMU-F,,3 - FAULT,,Reviewed,,,Insulation Monitoring Device (IMD) Interface
FS-XT-SMU-F-J17-4,4,Output,GND,Supply Ground (KL31) for the IMD. This connects to pin 1 of the Bender Isometer IR155-3204.,FS-XT-SMU-F-J17,J17,FS-XT-SMU-F,,4 - GND,,Reviewed,,,Insulation Monitoring Device (IMD) Interface
FS-XT-SMU-F-J18-1,1,Output,COIL 3-,Return path for coil excitation for power distribution channel 3.,FS-XT-SMU-F-J18,J18,FS-XT-SMU-F,,1 - COIL 3-,,Reviewed,,,Power Distribution Channels - Port A
FS-XT-SMU-F-J18-2,2,Output,COIL 3+,Coil excitation for power distribution channel 3.,FS-XT-SMU-F-J18,J18,FS-XT-SMU-F,,2 - COIL 3+,,Reviewed,,,Power Distribution Channels - Port A
FS-XT-SMU-F-J18-3,3,Output,COIL 2-,Return path for coil excitation for power distribution channel 2.,FS-XT-SMU-F-J18,J18,FS-XT-SMU-F,,3 - COIL 2-,,Reviewed,,,Power Distribution Channels - Port A
FS-XT-SMU-F-J18-4,4,Output,COIL 2+,Coil excitation for power distribution channel 2.,FS-XT-SMU-F-J18,J18,FS-XT-SMU-F,,4 - COIL 2+,,Reviewed,,,Power Distribution Channels - Port A
FS-XT-SMU-F-J18-5,5,Output,COIL 1-,Return path for coil excitation for power distribution channel 1.,FS-XT-SMU-F-J18,J18,FS-XT-SMU-F,,5 - COIL 1-,,Reviewed,,,Power Distribution Channels - Port A
FS-XT-SMU-F-J18-6,6,Output,COIL 1+,Coil excitation for power distribution channel 1.,FS-XT-SMU-F-J18,J18,FS-XT-SMU-F,,6 - COIL 1+,,Reviewed,,,Power Distribution Channels - Port A
FS-XT-SMU-F-J18-7,7,Output,CHG-,Return path for coil excitation for the charge contactor.,FS-XT-SMU-F-J18,J18,FS-XT-SMU-F,,7 - CHG-,,Reviewed,,,Power Distribution Channels - Port A
FS-XT-SMU-F-J18-8,8,Output,CHG+,Coil excitation for the charge contactor.,FS-XT-SMU-F-J18,J18,FS-XT-SMU-F,,8 - CHG+,,Reviewed,,,Power Distribution Channels - Port A
FS-XT-SMU-F-J18-9,9,Output,DISCHG-,Return path for coil excitation for the discharge contactor.,FS-XT-SMU-F-J18,J18,FS-XT-SMU-F,,9 - DISCHG-,,Reviewed,,,Power Distribution Channels - Port A
FS-XT-SMU-F-J18-10,10,Output,DISCHG+,Coil excitation for the discharge contactor.,FS-XT-SMU-F-J18,J18,FS-XT-SMU-F,,10 - DISCHG+,,Reviewed,,,Power Distribution Channels - Port A
FS-XT-SMU-F-J18-11,11,Output,PRECHG-,Return path for coil excitation for the precharge relay.,FS-XT-SMU-F-J18,J18,FS-XT-SMU-F,,11 - PRECHG-,,Reviewed,,,Power Distribution Channels - Port A
FS-XT-SMU-F-J18-12,12,Output,PRECHG+,Coil excitation for the precharge relay.,FS-XT-SMU-F-J18,J18,FS-XT-SMU-F,,12 - PRECHG+,,Reviewed,,,Power Distribution Channels - Port A
FS-XT-SMU-F-J19-1,1,Input,SUPPLY,Board Power Supply Positive. The input voltage range is from 9V to 60V.,FS-XT-SMU-F-J19,J19,FS-XT-SMU-F,,1 - SUPPLY,,Reviewed,,,Power Supply
FS-XT-SMU-F-J19-2,2,Input,POS 2,Backup Supply Positive,FS-XT-SMU-F-J19,J19,FS-XT-SMU-F,,2 - POS 2,Not populated in drawing.,Reviewed,,,Power Supply
FS-XT-SMU-F-J19-3,3,Input,GND,Ground path for the board power supply.,FS-XT-SMU-F-J19,J19,FS-XT-SMU-F,,3 - GND,,Reviewed,,,Power Supply
FS-XT-SMU-F-J20-1,1,Input,HVIL IN,HVIL Input,FS-XT-SMU-F-J20,J20,FS-XT-SMU-F,,1 - HVIL IN,,Reviewed,,,High Voltage Interlock (HVIL) Input
FS-XT-SMU-F-J20-2,2,NA,NC,Unused,FS-XT-SMU-F-J20,J20,FS-XT-SMU-F,,2 - NC,,Reviewed,,,High Voltage Interlock (HVIL) Input
FS-XT-SMU-F-J21-1,1,Output,5V,5V supply for external hall effect current sensor. ,FS-XT-SMU-F-J21,J21,FS-XT-SMU-F,,1 - 5V,,Reviewed,,To be shielded,Current Sensors Interface
FS-XT-SMU-F-J21-2,2,Input,I1 SENSE,"Analog input to the BMS from current sensor #1. 
Channel 1 is used for measuring low range currents.",FS-XT-SMU-F-J21,J21,FS-XT-SMU-F,,2 - I1 SENSE,,Reviewed,,To be shielded,Current Sensors Interface
FS-XT-SMU-F-J21-3,3,Input,I1 REF,"Analog input to the BMS from the reference signal of current sensor #1. If the external hall effect sensor has a provision for a reference, this by the BMS for improved current sensor calibration. This is an optional connection.
",FS-XT-SMU-F-J21,J21,FS-XT-SMU-F,,3 - I1 REF,,Reviewed,,To be shielded,Current Sensors Interface
FS-XT-SMU-F-J21-4,4,Output,GND,"Ground path for external hall effect current sensor.
",FS-XT-SMU-F-J21,J21,FS-XT-SMU-F,,4 - GND,,Reviewed,,Shield Braid,Current Sensors Interface
FS-XT-SMU-F-J21-5,5,Output,5V,5V supply for external hall effect current sensor. ,FS-XT-SMU-F-J21,J21,FS-XT-SMU-F,,5 - 5V,,Reviewed,,To be shielded,Current Sensors Interface
FS-XT-SMU-F-J21-6,6,Input,I2 SENSE,"Analog input to the BMS from current sensor #2.
Channel 2 is used for measuring high range currents.",FS-XT-SMU-F-J21,J21,FS-XT-SMU-F,,6 - I2 SENSE,,Reviewed,,To be shielded,Current Sensors Interface
FS-XT-SMU-F-J21-7,7,Input,I2 REF,"Analog input to the BMS from the reference signal of current sensor #2. If the external hall effect sensor has a provision for a reference, this by the BMS for improved current sensor calibration. This is an optional connection.",FS-XT-SMU-F-J21,J21,FS-XT-SMU-F,,7 - I2 REF,,Reviewed,,To be shielded,Current Sensors Interface
FS-XT-SMU-F-J21-8,8,Output,GND,Ground path for external hall effect current sensor.,FS-XT-SMU-F-J21,J21,FS-XT-SMU-F,,8 - GND,,Reviewed,,Shield Braid,Current Sensors Interface
FS-XT-SMU-F-J22-1,1,Input,GND,Ground for the supply for the power distribution channels.,FS-XT-SMU-F-J22,J22,FS-XT-SMU-F,,1 - GND,,Reviewed,,,Power Distribution Channels - Power Supply
FS-XT-SMU-F-J22-2,2,Input,SUPPLY,Supply positive for the power distribution channels,FS-XT-SMU-F-J22,J22,FS-XT-SMU-F,,2 - SUPPLY,,Reviewed,,,Power Distribution Channels - Power Supply
FS-XT-SMU-F-J24-1,1,Output,CAN2 GND,CAN 2 Ground. This can be used for shielding the CAN cables from EMI/EMC,FS-XT-SMU-F-J24,J24,FS-XT-SMU-F,,1 - CAN2 GND,,Reviewed,,,Isolated CAN Channel 2
FS-XT-SMU-F-J24-2,2,NA,CAN2 TERM,CAN 2 R Termination Resistor. This pin needs to be connected to CAN2 L to enable the termination resistor.,FS-XT-SMU-F-J24,J24,FS-XT-SMU-F,,2 - CAN2 TERM,,Reviewed,,,Isolated CAN Channel 2
FS-XT-SMU-F-J24-3,3,Input/Output,CAN2 L,CAN 2 Low,FS-XT-SMU-F-J24,J24,FS-XT-SMU-F,,3 - CAN2 L,,Reviewed,,,Isolated CAN Channel 2
FS-XT-SMU-F-J24-4,4,Input/Output,CAN2 H,CAN 2 High,FS-XT-SMU-F-J24,J24,FS-XT-SMU-F,,4 - CAN2 H,,Reviewed,,,Isolated CAN Channel 2
FS-XT-SMU-F-J25-1,1,Output,COIL 5-,Return path for coil excitation for power distribution channel 5.,FS-XT-SMU-F-J25,J25,FS-XT-SMU-F,,1 - COIL 5-,,Reviewed,,,Power Distribution Channels - Port B
FS-XT-SMU-F-J25-2,2,Output,COIL 5+,Coil excitation for power distribution channel 5.,FS-XT-SMU-F-J25,J25,FS-XT-SMU-F,,2 - COIL 5+,,Reviewed,,,Power Distribution Channels - Port B
FS-XT-SMU-F-J25-3,3,Output,COIL 4-,Return path for coil excitation for power distribution channel 4.,FS-XT-SMU-F-J25,J25,FS-XT-SMU-F,,3 - COIL 4-,,Reviewed,,,Power Distribution Channels - Port B
FS-XT-SMU-F-J25-4,4,Output,COIL 4+,Coil excitation for power distribution channel 4.,FS-XT-SMU-F-J25,J25,FS-XT-SMU-F,,4 - COIL 4+,,Reviewed,,,Power Distribution Channels - Port B
FS-XT-SMU-F-J26-1,1,Input,NTC 1+,Temperature sensing channel 1. The pin should be connected to the 1st NTC resistor,FS-XT-SMU-F-J26,J26,FS-XT-SMU-F,,1 - NTC 1+,,Reviewed,,,Peripheral Temperature Sensing
FS-XT-SMU-F-J26-2,2,Input,NTC 1-,Temperature sensing channel 1. The pin should be connected to the 1st NTC resistor,FS-XT-SMU-F-J26,J26,FS-XT-SMU-F,,2 - NTC 1-,,Reviewed,,,Peripheral Temperature Sensing
FS-XT-SMU-F-J26-3,3,Input,NTC 2+,Temperature sensing channel 2. The pin should be connected to the 2nd NTC resistor,FS-XT-SMU-F-J26,J26,FS-XT-SMU-F,,3 - NTC 2+,,Reviewed,,,Peripheral Temperature Sensing
FS-XT-SMU-F-J26-4,4,Input,NTC 2-,Temperature sensing channel 2. The pin should be connected to the 2nd NTC resistor,FS-XT-SMU-F-J26,J26,FS-XT-SMU-F,,4 - NTC 2-,,Reviewed,,,Peripheral Temperature Sensing
FS-XT-SMU-F-J26-5,5,Input,NTC 3+,Temperature sensing channel 3. The pin should be connected to the 3rd NTC resistor,FS-XT-SMU-F-J26,J26,FS-XT-SMU-F,,5 - NTC 3+,,Reviewed,,,Peripheral Temperature Sensing
FS-XT-SMU-F-J26-6,6,Input,NTC 3-,Temperature sensing channel 3. The pin should be connected to the 3rd NTC resistor,FS-XT-SMU-F-J26,J26,FS-XT-SMU-F,,6 - NTC 3-,,Reviewed,,,Peripheral Temperature Sensing
FS-XT-SMU-F-J26-7,7,Input,NTC 4+,Temperature sensing channel 4. The pin should be connected to the 4th NTC resistor,FS-XT-SMU-F-J26,J26,FS-XT-SMU-F,,7 - NTC 4+,,Reviewed,,,Peripheral Temperature Sensing
FS-XT-SMU-F-J26-8,8,Input,NTC 4-,Temperature sensing channel 4. The pin should be connected to the 4th NTC resistor,FS-XT-SMU-F-J26,J26,FS-XT-SMU-F,,8 - NTC 4-,,Reviewed,,,Peripheral Temperature Sensing
FS-XT-SMU-F-J27-1,1,Output,HSOD 3,High Side Open Drain output #3.,FS-XT-SMU-F-J27,J27,FS-XT-SMU-F,,1 - HSOD 3,,Reviewed,,,High Side Open Drain Output Interface
FS-XT-SMU-F-J27-2,2,Output,HSOD 2,High Side Open Drain output #2.,FS-XT-SMU-F-J27,J27,FS-XT-SMU-F,,2 - HSOD 2,,Reviewed,,,High Side Open Drain Output Interface
FS-XT-SMU-F-J27-3,3,Output,GND,Ground path for the high side open drain outputs.,FS-XT-SMU-F-J27,J27,FS-XT-SMU-F,,3 - GND,,Reviewed,,,High Side Open Drain Output Interface
FS-XT-SMU-F-J12-3,3,Input/Output,CAN1 L,CAN 1 Low,FS-XT-SMU-F-J12,J12,FS-XT-SMU-F,,3 - CAN1 L,,Reviewed,,,Isolated CAN Channel 1
FS-XT-SMU-F-J12-4,4,Input/Output,CAN1 H,CAN 1 High,FS-XT-SMU-F-J12,J12,FS-XT-SMU-F,,4 - CAN1 H,,Reviewed,,,Isolated CAN Channel 1
FSB-PR-I-J1-1,1,Output,PRECHG -,Return path for coil excitation for the precharge relay,FSB-PR-I-J1,J1,FSB-PR-I,,1 - PRECHG -,,,,,Power Distribution & Current Sensor 2
FSB-PR-I-J1-2,2,Output,PRECHG +,Coil excitation for the precharge relay,FSB-PR-I-J1,J1,FSB-PR-I,,2 - PRECHG +,,,,,Power Distribution & Current Sensor 2
FSB-PR-I-J1-3,3,Output,DISCHG -,Return path for coil excitation for the discharge contactor,FSB-PR-I-J1,J1,FSB-PR-I,,3 - DISCHG -,,,,,Power Distribution & Current Sensor 2
FSB-PR-I-J1-4,4,Output,DISCHG +,Coil excitation for the discharge contactor,FSB-PR-I-J1,J1,FSB-PR-I,,4 - DISCHG +,,,,,Power Distribution & Current Sensor 2
FSB-PR-I-J1-5,5,Output,CHG -,Return path for coil excitation for the charge contactor,FSB-PR-I-J1,J1,FSB-PR-I,,5 - CHG -,,,,,Power Distribution & Current Sensor 2
FSB-PR-I-J1-6,6,Output,CHG +,Coil excitation for the charge contactor,FSB-PR-I-J1,J1,FSB-PR-I,,6 - CHG +,,,,,Power Distribution & Current Sensor 2
FSB-PR-I-J1-7,7,Output,COIL 1 -,"FSB-PR-I-CS: Return path for coil excitation for power distribution channel 1 ;
FSB-PR-I: Unused",FSB-PR-I-J1,J1,FSB-PR-I,,7 - COIL 1 -,,,,,Power Distribution & Current Sensor 2
FSB-PR-I-J1-8,8,Output,COIL 1 +,"FSB-PR-I-CS: Coil excitation for power distribution channel 1;
FSB-PR-I: Unused",FSB-PR-I-J1,J1,FSB-PR-I,,8 - COIL 1 +,,,,,Power Distribution & Current Sensor 2
FSB-PR-I-J1-9,9,NA,NC,Unused,FSB-PR-I-J1,J1,FSB-PR-I,,9 - NC,This pin needs to be depopulated for PR-I V1.,,,,Power Distribution & Current Sensor 2
FSB-PR-I-J1-10,10,NA,NC,Unused,FSB-PR-I-J1,J1,FSB-PR-I,,10 - NC,This pin needs to be depopulated for PR-I V1.,,,,Power Distribution & Current Sensor 2
FSB-PR-I-J1-11,11,NA,NC,Unused,FSB-PR-I-J1,J1,FSB-PR-I,,11 - NC,,,,,Power Distribution & Current Sensor 2
FSB-PR-I-J1-12,12,NA,I2 SENSE,"FSB-PR-I-CS:  Analog input to the BMS from current sensor #2. Channel 2 is used for measuring high range currents ; 
FSB-PR-I: Analog input to the BMS from current sensor. FSB-PR-I has a single current sensor channel",FSB-PR-I-J1,J1,FSB-PR-I,,12 - I2 SENSE,,,,To be shielded,Power Distribution & Current Sensor 2
FSB-PR-I-J1-13,13,Output,I2 GND,GND of supply from BMS for powering the current sensor,FSB-PR-I-J1,J1,FSB-PR-I,,13 - I2 GND,,,,Shield Braid,Power Distribution & Current Sensor 2
FSB-PR-I-J1-14,14,Output,I2 5V,5V supply from BMS for powering the current sensor,FSB-PR-I-J1,J1,FSB-PR-I,,14 - I2 5V,,,,To be shielded,Power Distribution & Current Sensor 2
FSB-PR-I-J2-1,1,Input,PRECHG,Command (Active High) received by PDU from BMS to control precharging,FSB-PR-I-J2,J2,FSB-PR-I,,1 - PRECHG,This pin need not be labelled as the harness has connectors on both sides,,,,BMS Interface
FSB-PR-I-J2-2,2,GND,GND,GND,FSB-PR-I-J2,J2,FSB-PR-I,,2 - GND,This pin need not be labelled as the harness has connectors on both sides,,,,BMS Interface
FSB-PR-I-J2-3,3,Input,DISCHG,Command (Active High) received by PDU from BMS to control discharging,FSB-PR-I-J2,J2,FSB-PR-I,,3 - DISCHG,This pin need not be labelled as the harness has connectors on both sides,,,,BMS Interface
FSB-PR-I-J2-4,4,GND,GND,GND,FSB-PR-I-J2,J2,FSB-PR-I,,4 - GND,This pin need not be labelled as the harness has connectors on both sides,,,,BMS Interface
FSB-PR-I-J2-5,5,Input,CHG,Command (Active High) received  by PDU from BMS to control charging,FSB-PR-I-J2,J2,FSB-PR-I,,5 - CHG,This pin need not be labelled as the harness has connectors on both sides,,,,BMS Interface
FSB-PR-I-J2-6,6,Output,WELD DET.,"FSB-PR-I-CS: Digital output (Active High) to BMS from PDU for signalling 'Contact-Weld' in either Charge or Discharge contactor ;
FSB-PR-I: Unused",FSB-PR-I-J2,J2,FSB-PR-I,,6 - WELD DET.,This pin need not be labelled as the harness has connectors on both sides,,,,BMS Interface
FSB-PR-I-J2-7,7,Input,AUX. COIL,Command (Active High) received by PDU from BMS to control auxiliary contactor,FSB-PR-I-J2,J2,FSB-PR-I,,7 - AUX. COIL,This pin need not be labelled as the harness has connectors on both sides,,,,BMS Interface
FSB-PR-I-J2-8,8,GND,GND,GND,FSB-PR-I-J2,J2,FSB-PR-I,,8 - GND,This pin need not be labelled as the harness has connectors on both sides,,,,BMS Interface
FSB-PR-I-J2-9,9,NA,NC,Unused,FSB-PR-I-J2,J2,FSB-PR-I,,9 - NC,This pin need not be labelled as the harness has connectors on both sides,,,,BMS Interface
FSB-PR-I-J2-10,10,NA,NC,Unused,FSB-PR-I-J2,J2,FSB-PR-I,,10 - NC,This pin need not be labelled as the harness has connectors on both sides,,,,BMS Interface
FSB-PR-I-J2-11,11,NA,NC,Unused,FSB-PR-I-J2,J2,FSB-PR-I,,11 - NC,This pin need not be labelled as the harness has connectors on both sides,,,,BMS Interface
FSB-PR-I-J2-12,12,NA,NC,Unused,FSB-PR-I-J2,J2,FSB-PR-I,,12 - NC,This pin need not be labelled as the harness has connectors on both sides,,,,BMS Interface
FSB-PR-I-J2-13,13,GND,GND,GND of supply from BMS for powering the PDU,FSB-PR-I-J2,J2,FSB-PR-I,,13 - GND,This pin need not be labelled as the harness has connectors on both sides,,,Shield Braid,BMS Interface
FSB-PR-I-J2-14,14,Power,3V3,3V3 supply from BMS for powering the PDU,FSB-PR-I-J2,J2,FSB-PR-I,,14 - 3V3,This pin need not be labelled as the harness has connectors on both sides,,,,BMS Interface
FSB-PR-I-J2-15,15,Output,I1 SENSE,"FSB-PR-I-CS: Current sensor #1 analog signal to BMS from PDU. Channel 1 is used for measuring low range currents. This signal is level translated from 5V (current sensor range) to 3.3V (micro-controller range). See pin 17 for information on the other current sensor channel
FSB-PR-I: Unused",FSB-PR-I-J2,J2,FSB-PR-I,,15 - I1 SENSE,This pin need not be labelled as the harness has connectors on both sides,,This is to be verified with @Shreyas Shah ,To be shielded,BMS Interface
FSB-PR-I-J2-16,16,Power,5V,5V supply from BMS for powering the PDU,FSB-PR-I-J2,J2,FSB-PR-I,,16 - 5V,This pin need not be labelled as the harness has connectors on both sides,,,,BMS Interface
FSB-PR-I-J2-17,17,Output,I2 SENSE,"FSB-PR-I-CS: Current sensor #2 analog signal to BMS from PDU. Channel 2 is used for measuring high range currents. This signal is level translated from 5V (current sensor range) to 3.3V (micro-controller range). See pin 15 of the same connector for information on the other current sensor channel
FSB-PR-I: Current sensor analog signal to BMS from PDU. This signal is level translated from 5V (current sensor range) to 3.3V (micro-controller range). FSB-PR-I has a single current sensor channel",FSB-PR-I-J2,J2,FSB-PR-I,,17 - I2 SENSE,This pin need not be labelled as the harness has connectors on both sides,,,To be shielded,BMS Interface
FSB-PR-I-J2-18,18,NA,NC,Unused,FSB-PR-I-J2,J2,FSB-PR-I,,18 - NC,This pin need not be labelled as the harness has connectors on both sides,,,,BMS Interface
FSB-PR-I-J2-19,19,Input,BUZZ,Command (Active High) received from BMS to control buzzer,FSB-PR-I-J2,J2,FSB-PR-I,,19 - BUZZ,This pin need not be labelled as the harness has connectors on both sides,,,,BMS Interface
FSB-PR-I-J2-20,20,NA,NC,Unused,FSB-PR-I-J2,J2,FSB-PR-I,,20 - NC,This pin need not be labelled as the harness has connectors on both sides,,,,BMS Interface
FSB-PR-I-J3-1,1,Power,SUPPLY,Supply positive from Battery/Aux. Battery/DC-DC Converter for the power distribution channels ,FSB-PR-I-J3,J3,FSB-PR-I,,1 - SUPPLY,,,,,Power Distribution Channels - Power Supply
FSB-PR-I-J3-2,2,GND,GND,Ground from Battery/Aux. Battery/DC-DC Converter for the power distribution channels.,FSB-PR-I-J3,J3,FSB-PR-I,,2 - GND,,,,,Power Distribution Channels - Power Supply
FSB-PR-I-J4-1,1,Output,WCHK A OUT,Supply from PDU for exciting the auxiliary contact of charge contactor,FSB-PR-I-J4,J4,FSB-PR-I,,1 - WCHK A OUT,This harness drawing is unavailable for FSB-PR-I V1,,Only supported in FSB-PR_I V2,,Weld Check & Current Sensor 1
FSB-PR-I-J4-2,2,Output,WCHK B OUT,Supply from PDU for exciting the auxiliary contact of discharge contactor,FSB-PR-I-J4,J4,FSB-PR-I,,2 - WCHK B OUT,This harness drawing is unavailable for FSB-PR-I V1,,Only supported in FSB-PR_I V2,,Weld Check & Current Sensor 1
FSB-PR-I-J4-3,3,Input,WCHK A IN,Input to PDU for detecting 'Contact-Weld' in Charge Contactor,FSB-PR-I-J4,J4,FSB-PR-I,,3 - WCHK A IN,This harness drawing is unavailable for FSB-PR-I V1,,Only supported in FSB-PR_I V2,,Weld Check & Current Sensor 1
FSB-PR-I-J4-4,4,Input,WCHK B IN,Input to PDU for detecting 'Contact-Weld' in Discharge Contactor,FSB-PR-I-J4,J4,FSB-PR-I,,4 - WCHK B IN,This harness drawing is unavailable for FSB-PR-I V1,,Only supported in FSB-PR_I V2,,Weld Check & Current Sensor 1
FSB-PR-I-J4-5,5,Input,I1 SENSE,"Analog input to the BMS from current sensor #1. 
Channel 1 is used for measuring low range currents.",FSB-PR-I-J4,J4,FSB-PR-I,,5 - I1 SENSE,This harness drawing is unavailable for FSB-PR-I V1,,Only supported in FSB-PR_I V2,To be shielded,Weld Check & Current Sensor 1
FSB-PR-I-J4-6,6,NA,NC,Unused,FSB-PR-I-J4,J4,FSB-PR-I,,6 - NC,This harness drawing is unavailable for FSB-PR-I V1,,Only supported in FSB-PR_I V2,,Weld Check & Current Sensor 1
FSB-PR-I-J4-7,7,Output,I1 SUPPLY,5V supply from BMS for powering the current sensor,FSB-PR-I-J4,J4,FSB-PR-I,,7 - I1 SUPPLY,This harness drawing is unavailable for FSB-PR-I V1,,Only supported in FSB-PR_I V2,To be shielded,Weld Check & Current Sensor 1
FSB-PR-I-J4-8,8,Output,I1 GND,GND of supply from BMS for powering the current sensor,FSB-PR-I-J4,J4,FSB-PR-I,,8 - I1 GND,This harness drawing is unavailable for FSB-PR-I V1,,Only supported in FSB-PR_I V2,Shield Braid,Weld Check & Current Sensor 1
FSB-B-J3-1,1,GND,GND,Ground connection to power up the PDU from the BMS,FSB-B-J3,J3,FSB-B,,1 - GND,,,,Shield Braid,BMS Interface
FSB-B-J3-2,2,Power,3V3,3V3 connection to power up the PDU from the BMS,FSB-B-J3,J3,FSB-B,,2 - 3V3,,,,,BMS Interface
FSB-B-J3-3,3,Input,DISCHG,Command (Active High) received from BMS to turn on discharging,FSB-B-J3,J3,FSB-B,,3 - DISCHG,,,,,BMS Interface
FSB-B-J3-4,4,Output,T SENSE,"Analog output to BMS, for sending temperature sensor measurement",FSB-B-J3,J3,FSB-B,,4 - T SENSE,,,,To be shielded,BMS Interface
FSB-B-J3-5,5,Input,CHG,Command (Active High) received from BMS to turn on charging,FSB-B-J3,J3,FSB-B,,5 - CHG,,,,,BMS Interface
FSB-B-J3-6,6,Output,I SENSE,"Analog output to BMS, for sending current sensor measurement",FSB-B-J3,J3,FSB-B,,6 - I SENSE,,,,To be shielded,BMS Interface
FSB-B-J3-7,7,Input,PRECHG,Command (Active High) received from BMS to turn on precharging,FSB-B-J3,J3,FSB-B,,7 - PRECHG,,,,,BMS Interface
FSB-B-J3-8,8,Output,PDU ERR,"Digital output (Active High) to BMS, for signalling the PDU Lock error ",FSB-B-J3,J3,FSB-B,,8 - PDU ERR,,,,,BMS Interface
FSB-B-J3-9,9,Input,ERR CLR,"Command (Active High) received from BMS, for clearing the PDU Lock error.",FSB-B-J3,J3,FSB-B,,9 - ERR CLR,,,,,BMS Interface
FSB-B-J3-10,10,NA,NC,Unused,FSB-B-J3,J3,FSB-B,,10 - NC,Wire for this pin is not populated,,,,BMS Interface
FSB-B-J4-1,1,Power,BATT+,Battery positive from PDU to SCP (Short Circuit Protection) Snubber Capacitor,FSB-B-J4,J4,FSB-B,,1 - BATT+,,,,,PDU Power Supply
FSB-B-J4-2,2,Power,BATT+,Battery positive from Battery for powering the PDU,FSB-B-J4,J4,FSB-B,,2 - BATT+,,,,,PDU Power Supply
FSB-B-J1-1,1,Power,Batt -ve,Connection for low-side switching at battery end,FSB-B-J1,J1,FSB-B,,1 - Batt -ve,,,,,Battery Negative
FSB-B-J2-1,1,Power,Load -ve,Connection for low-side switching at load end,FSB-B-J2,J2,FSB-B,,1 - Load -ve,,,,,Load Negative
-,,,,,,,,, - ,,,,,
-,,,,,,,,, - ,,,,,
-,,,,,,,,, - ,,,,,